RibbitEclat/target/tb.vcd
$date
  Sun Apr 28 03:05:05 2024
$end
$version
  GHDL v0
$end
$timescale
  1 fs
$end
$scope module standard $end
$upscope $end
$scope module std_logic_1164 $end
$upscope $end
$scope module numeric_std $end
$upscope $end
$scope module runtime $end
$upscope $end
$scope module textio $end
$upscope $end
$scope module tb_main $end
$var reg 1 ! tb_run $end
$var reg 1 " tb_argument[0:0] $end
$var reg 1 # tb_result[0:0] $end
$var reg 1 $ tb_rdy[0:0] $end
$var reg 1 % tb_clk $end
$var reg 1 & rst $end
$scope module u1 $end
$var reg 1 ' clk $end
$var reg 1 ( reset $end
$var reg 1 ) run $end
$var reg 1 * rdy[0:0] $end
$var reg 1 + argument[0:0] $end
$var reg 1 , result[0:0] $end
$comment \state\ is not handled $end
$comment arr1696 is not handled $end
$var reg 32 - \$arr1696_value\[0:31] $end
$var integer 32 . \$arr1696_ptr\ $end
$var integer 32 / \$arr1696_ptr_write\ $end
$var reg 32 0 \$arr1696_write\[0:31] $end
$var reg 1 1 \$arr1696_write_request\ $end
$comment arr1697 is not handled $end
$var reg 108 2 \$arr1697_value\[0:107] $end
$var integer 32 3 \$arr1697_ptr\ $end
$var integer 32 4 \$arr1697_ptr_write\ $end
$var reg 108 5 \$arr1697_write\[0:107] $end
$var reg 1 6 \$arr1697_write_request\ $end
$comment arr1698 is not handled $end
$var reg 32 7 \$arr1698_value\[0:31] $end
$var integer 32 8 \$arr1698_ptr\ $end
$var integer 32 9 \$arr1698_ptr_write\ $end
$var reg 32 : \$arr1698_write\[0:31] $end
$var reg 1 ; \$arr1698_write_request\ $end
$comment arr1699 is not handled $end
$var reg 32 < \$arr1699_value\[0:31] $end
$var integer 32 = \$arr1699_ptr\ $end
$var integer 32 > \$arr1699_ptr_write\ $end
$var reg 32 ? \$arr1699_write\[0:31] $end
$var reg 1 @ \$arr1699_write_request\ $end
$comment arr1700 is not handled $end
$var reg 32 A \$arr1700_value\[0:31] $end
$var integer 32 B \$arr1700_ptr\ $end
$var integer 32 C \$arr1700_ptr_write\ $end
$var reg 32 D \$arr1700_write\[0:31] $end
$var reg 1 E \$arr1700_write_request\ $end
$comment arr1701 is not handled $end
$var reg 32 F \$arr1701_value\[0:31] $end
$var integer 32 G \$arr1701_ptr\ $end
$var integer 32 H \$arr1701_ptr_write\ $end
$var reg 32 I \$arr1701_write\[0:31] $end
$var reg 1 J \$arr1701_write_request\ $end
$comment arr1702 is not handled $end
$var reg 32 K \$arr1702_value\[0:31] $end
$var integer 32 L \$arr1702_ptr\ $end
$var integer 32 M \$arr1702_ptr_write\ $end
$var reg 32 N \$arr1702_write\[0:31] $end
$var reg 1 O \$arr1702_write_request\ $end
$comment arr1703 is not handled $end
$var reg 32 P \$arr1703_value\[0:31] $end
$var integer 32 Q \$arr1703_ptr\ $end
$var integer 32 R \$arr1703_ptr_write\ $end
$var reg 32 S \$arr1703_write\[0:31] $end
$var reg 1 T \$arr1703_write_request\ $end
$comment arr1704 is not handled $end
$var reg 32 U \$arr1704_value\[0:31] $end
$var integer 32 V \$arr1704_ptr\ $end
$var integer 32 W \$arr1704_ptr_write\ $end
$var reg 32 X \$arr1704_write\[0:31] $end
$var reg 1 Y \$arr1704_write_request\ $end
$upscope $end
$upscope $end
$enddefinitions $end
#0
0!
bU "
bU #
bU $
1%
1&
1'
1(
0)
bU *
bU +
bU ,
bUUUUUUUUUUUUUUUUUUUUUUUUUUUUUUUU -
b0 .
b0 /
bUUUUUUUUUUUUUUUUUUUUUUUUUUUUUUUU 0
01
bUUUUUUUUUUUUUUUUUUUUUUUUUUUUUUUUUUUUUUUUUUUUUUUUUUUUUUUUUUUUUUUUUUUUUUUUUUUUUUUUUUUUUUUUUUUUUUUUUUUUUUUUUUUU 2
b0 3
b0 4
bUUUUUUUUUUUUUUUUUUUUUUUUUUUUUUUUUUUUUUUUUUUUUUUUUUUUUUUUUUUUUUUUUUUUUUUUUUUUUUUUUUUUUUUUUUUUUUUUUUUUUUUUUUUU 5
06
bUUUUUUUUUUUUUUUUUUUUUUUUUUUUUUUU 7
b0 8
b0 9
bUUUUUUUUUUUUUUUUUUUUUUUUUUUUUUUU :
0;
bUUUUUUUUUUUUUUUUUUUUUUUUUUUUUUUU <
b0 =
b0 >
bUUUUUUUUUUUUUUUUUUUUUUUUUUUUUUUU ?
0@
bUUUUUUUUUUUUUUUUUUUUUUUUUUUUUUUU A
b0 B
b0 C
bUUUUUUUUUUUUUUUUUUUUUUUUUUUUUUUU D
0E
bUUUUUUUUUUUUUUUUUUUUUUUUUUUUUUUU F
b0 G
b0 H
bUUUUUUUUUUUUUUUUUUUUUUUUUUUUUUUU I
0J
bUUUUUUUUUUUUUUUUUUUUUUUUUUUUUUUU K
b0 L
b0 M
bUUUUUUUUUUUUUUUUUUUUUUUUUUUUUUUU N
0O
bUUUUUUUUUUUUUUUUUUUUUUUUUUUUUUUU P
b0 Q
b0 R
bUUUUUUUUUUUUUUUUUUUUUUUUUUUUUUUU S
0T
bUUUUUUUUUUUUUUUUUUUUUUUUUUUUUUUU U
b0 V
b0 W
bUUUUUUUUUUUUUUUUUUUUUUUUUUUUUUUU X
0Y
#2000000
0&
0(
#5000000
0%
0'
#10000000
1!
b0 #
b0 $
1%
1'
1)
b0 *
b0 ,
b00000000000000000000000000000000 -
b000000000000000000000000000000000000000000000000000000000000000000000000000000000000000000000000000000000000 2
b00000000000000000000000000000000 7
b00000000000000000010001100101000 :
1;
b00000000000000000000000000000000 <
b00000000000000000000000000000000 A
b00000000000000000000000000000000 F
b00000000000000000000000000000000 K
b00000000000000000000000000000000 P
b00000000000000000000000000000000 U
#15000000
0%
0'
#20000000
1%
1'
0;
#25000000
0%
0'
#30000000
1%
1'
b00000000000000000010001100101000 7
b00000000000000000000000000000000 ?
1@
#35000000
0%
0'
#40000000
1%
1'
0@
#45000000
0%
0'
#50000000
1%
1'
b00000000000000000000000000000000 D
1E
#55000000
0%
0'
#60000000
1%
1'
0E
#65000000
0%
0'
#70000000
1%
1'
b00000000000000000000000000000000 I
1J
#75000000
0%
0'
#80000000
1%
1'
0J
#85000000
0%
0'
#90000000
1%
1'
b00000000000000000000000000000000 N
1O
#95000000
0%
0'
#100000000
1%
1'
0O
#105000000
0%
0'
#110000000
1%
1'
b00000000000000000010001100101000 S
1T
#115000000
0%
0'
#120000000
1%
1'
0T
#125000000
0%
0'
#130000000
1%
1'
b00000000000000000010001100101000 P
b00000000000000000000000000010100 X
1Y
#135000000
0%
0'
#140000000
1%
1'
0Y
#145000000
0%
0'
#150000000
1%
1'
b00000000000000000000000000010100 U
b1 W
b00000000000000000000000000011110 X
1Y
#155000000
0%
0'
#160000000
1%
1'
0Y
#165000000
0%
0'
#170000000
1%
1'
b10 W
b00000000000000000000000000000000 X
1Y
#175000000
0%
0'
#180000000
1%
1'
0Y
#185000000
0%
0'
#190000000
1%
1'
b11 W
b00000000000000000000000000001010 X
1Y
#195000000
0%
0'
#200000000
1%
1'
0Y
#205000000
0%
0'
#210000000
1%
1'
b100 W
b00000000000000000000000000001011 X
1Y
#215000000
0%
0'
#220000000
1%
1'
0Y
#225000000
0%
0'
#230000000
1%
1'
b101 W
b00000000000000000000000000000100 X
1Y
#235000000
0%
0'
#240000000
1%
1'
0Y
#245000000
0%
0'
#250000000
1%
1'
b000100000000000000000000000000000000000100000000000000000000000000000000000100000000000000000000000000000101 5
16
#255000000
0%
0'
#260000000
1%
1'
06
#265000000
0%
0'
#270000000
1%
1'
b000100000000000000000000000000000000000100000000000000000000000000000000000100000000000000000000000000000101 2
b1 4
16
#275000000
0%
0'
#280000000
1%
1'
06
#285000000
0%
0'
#290000000
1%
1'
b10 4
16
#295000000
0%
0'
#300000000
1%
1'
06
#305000000
0%
0'
#310000000
1%
1'
b11 4
b001000000000000000000000000000000001001000000000000000000000000000000010000100000000000000000000000000000101 5
16
#315000000
0%
0'
#320000000
1%
1'
06
#325000000
0%
0'
#330000000
1%
1'
b00000000000000000000000000000011 I
1J
#335000000
0%
0'
#340000000
1%
1'
0J
#345000000
0%
0'
#350000000
b1 #
b1 $
1%
1'
b1 *
b1 ,
b00000000000000000000000000000011 F
#355000000
0%
0'
#360000000
b0 $
1%
1'
b0 *
1;
#365000000
0%
0'
#370000000
1%
1'
0;
#375000000
0%
0'
#380000000
1%
1'
1@
#385000000
0%
0'
#390000000
1%
1'
0@
#395000000
0%
0'
#400000000
1%
1'
1E
#405000000
0%
0'
#410000000
1%
1'
0E
#415000000
0%
0'
#420000000
1%
1'
b00000000000000000000000000000000 I
1J
#425000000
0%
0'
#430000000
1%
1'
0J
#435000000
0%
0'
#440000000
1%
1'
b00000000000000000000000000000000 F
1O
#445000000
0%
0'
#450000000
1%
1'
0O
#455000000
0%
0'
#460000000
1%
1'
1T
#465000000
0%
0'
#470000000
1%
1'
0T
#475000000
0%
0'
#480000000
1%
1'
b0 W
b00000000000000000000000000010100 X
1Y
#485000000
0%
0'
#490000000
1%
1'
0Y
#495000000
0%
0'
#500000000
1%
1'
b1 W
b00000000000000000000000000011110 X
1Y
#505000000
0%
0'
#510000000
1%
1'
0Y
#515000000
0%
0'
#520000000
1%
1'
b10 W
b00000000000000000000000000000000 X
1Y
#525000000
0%
0'
#530000000
1%
1'
0Y
#535000000
0%
0'
#540000000
1%
1'
b11 W
b00000000000000000000000000001010 X
1Y
#545000000
0%
0'
#550000000
1%
1'
0Y
#555000000
0%
0'
#560000000
1%
1'
b100 W
b00000000000000000000000000001011 X
1Y
#565000000
0%
0'
#570000000
1%
1'
0Y
#575000000
0%
0'
#580000000
1%
1'
b101 W
b00000000000000000000000000000100 X
1Y
#585000000
0%
0'
#590000000
1%
1'
0Y
#595000000
0%
0'
#600000000
1%
1'
b0 4
b000100000000000000000000000000000000000100000000000000000000000000000000000100000000000000000000000000000101 5
16
#605000000
0%
0'
#610000000
1%
1'
06
#615000000
0%
0'
#620000000
1%
1'
b1 4
16
#625000000
0%
0'
#630000000
1%
1'
06
#635000000
0%
0'
#640000000
1%
1'
b10 4
16
#645000000
0%
0'
#650000000
1%
1'
06
#655000000
0%
0'
#660000000
1%
1'
b11 4
b001000000000000000000000000000000001001000000000000000000000000000000010000100000000000000000000000000000101 5
16
#665000000
0%
0'
#670000000
1%
1'
06
#675000000
0%
0'
#680000000
1%
1'
b00000000000000000000000000000011 I
1J
#685000000
0%
0'
#690000000
1%
1'
0J
#695000000
0%
0'
#700000000
b1 $
1%
1'
b1 *
b00000000000000000000000000000011 F
#705000000
0%
0'
#710000000
b0 $
1%
1'
b0 *
1;
#715000000
0%
0'
#720000000
1%
1'
0;
#725000000
0%
0'
#730000000
1%
1'
1@
#735000000
0%
0'
#740000000
1%
1'
0@
#745000000
0%
0'
#750000000
1%
1'
1E
#755000000
0%
0'
#760000000
1%
1'
0E
#765000000
0%
0'
#770000000
1%
1'
b00000000000000000000000000000000 I
1J
#775000000
0%
0'
#780000000
1%
1'
0J
#785000000
0%
0'
#790000000
1%
1'
b00000000000000000000000000000000 F
1O
#795000000
0%
0'
#800000000
1%
1'
0O
#805000000
0%
0'
#810000000
1%
1'
1T
#815000000
0%
0'
#820000000
1%
1'
0T
#825000000
0%
0'
#830000000
1%
1'
b0 W
b00000000000000000000000000010100 X
1Y
#835000000
0%
0'
#840000000
1%
1'
0Y
#845000000
0%
0'
#850000000
1%
1'
b1 W
b00000000000000000000000000011110 X
1Y
#855000000
0%
0'
#860000000
1%
1'
0Y
#865000000
0%
0'
#870000000
1%
1'
b10 W
b00000000000000000000000000000000 X
1Y
#875000000
0%
0'
#880000000
1%
1'
0Y
#885000000
0%
0'
#890000000
1%
1'
b11 W
b00000000000000000000000000001010 X
1Y
#895000000
0%
0'
#900000000
1%
1'
0Y
#905000000
0%
0'
#910000000
1%
1'
b100 W
b00000000000000000000000000001011 X
1Y
#915000000
0%
0'
#920000000
1%
1'
0Y
#925000000
0%
0'
#930000000
1%
1'
b101 W
b00000000000000000000000000000100 X
1Y
#935000000
0%
0'
#940000000
1%
1'
0Y
#945000000
0%
0'
#950000000
1%
1'
b0 4
b000100000000000000000000000000000000000100000000000000000000000000000000000100000000000000000000000000000101 5
16
#955000000
0%
0'
#960000000
1%
1'
06
#965000000
0%
0'
#970000000
1%
1'
b1 4
16
#975000000
0%
0'
#980000000
1%
1'
06
#985000000
0%
0'
#990000000
1%
1'
b10 4
16
#995000000
0%
0'
#1000000000
1%
1'
06
#1005000000
0%
0'
#1010000000
1%
1'
b11 4
b001000000000000000000000000000000001001000000000000000000000000000000010000100000000000000000000000000000101 5
16
#1015000000
0%
0'
#1020000000
1%
1'
06
#1025000000
0%
0'
#1030000000
1%
1'
b00000000000000000000000000000011 I
1J
#1035000000
0%
0'
#1040000000
1%
1'
0J
#1045000000
0%
0'
#1050000000
b1 $
1%
1'
b1 *
b00000000000000000000000000000011 F
#1055000000
0%
0'
#1060000000
b0 $
1%
1'
b0 *
1;
#1065000000
0%
0'
#1070000000
1%
1'
0;
#1075000000
0%
0'
#1080000000
1%
1'
1@
#1085000000
0%
0'
#1090000000
1%
1'
0@
#1095000000
0%
0'
#1100000000
1%
1'
1E
#1105000000
0%
0'
#1110000000
1%
1'
0E
#1115000000
0%
0'
#1120000000
1%
1'
b00000000000000000000000000000000 I
1J
#1125000000
0%
0'
#1130000000
1%
1'
0J
#1135000000
0%
0'
#1140000000
1%
1'
b00000000000000000000000000000000 F
1O
#1145000000
0%
0'
#1150000000
1%
1'
0O
#1155000000
0%
0'
#1160000000
1%
1'
1T
#1165000000
0%
0'
#1170000000
1%
1'
0T
#1175000000
0%
0'
#1180000000
1%
1'
b0 W
b00000000000000000000000000010100 X
1Y
#1185000000
0%
0'
#1190000000
1%
1'
0Y
#1195000000
0%
0'
#1200000000
1%
1'
b1 W
b00000000000000000000000000011110 X
1Y
#1205000000
0%
0'
#1210000000
1%
1'
0Y
#1215000000
0%
0'
#1220000000
1%
1'
b10 W
b00000000000000000000000000000000 X
1Y
#1225000000
0%
0'
#1230000000
1%
1'
0Y
#1235000000
0%
0'
#1240000000
1%
1'
b11 W
b00000000000000000000000000001010 X
1Y
#1245000000
0%
0'
#1250000000
1%
1'
0Y
#1255000000
0%
0'
#1260000000
1%
1'
b100 W
b00000000000000000000000000001011 X
1Y
#1265000000
0%
0'
#1270000000
1%
1'
0Y
#1275000000
0%
0'
#1280000000
1%
1'
b101 W
b00000000000000000000000000000100 X
1Y
#1285000000
0%
0'
#1290000000
1%
1'
0Y
#1295000000
0%
0'
#1300000000
1%
1'
b0 4
b000100000000000000000000000000000000000100000000000000000000000000000000000100000000000000000000000000000101 5
16
#1305000000
0%
0'
#1310000000
1%
1'
06
#1315000000
0%
0'
#1320000000
1%
1'
b1 4
16
#1325000000
0%
0'
#1330000000
1%
1'
06
#1335000000
0%
0'
#1340000000
1%
1'
b10 4
16
#1345000000
0%
0'
#1350000000
1%
1'
06
#1355000000
0%
0'
#1360000000
1%
1'
b11 4
b001000000000000000000000000000000001001000000000000000000000000000000010000100000000000000000000000000000101 5
16
#1365000000
0%
0'
#1370000000
1%
1'
06
#1375000000
0%
0'
#1380000000
1%
1'
b00000000000000000000000000000011 I
1J
#1385000000
0%
0'
#1390000000
1%
1'
0J
#1395000000
0%
0'
#1400000000
b1 $
1%
1'
b1 *
b00000000000000000000000000000011 F
#1405000000
0%
0'
#1410000000
b0 $
1%
1'
b0 *
1;
#1415000000
0%
0'
#1420000000
1%
1'
0;
#1425000000
0%
0'
#1430000000
1%
1'
1@
#1435000000
0%
0'
#1440000000
1%
1'
0@
#1445000000
0%
0'
#1450000000
1%
1'
1E
#1455000000
0%
0'
#1460000000
1%
1'
0E
#1465000000
0%
0'
#1470000000
1%
1'
b00000000000000000000000000000000 I
1J
#1475000000
0%
0'
#1480000000
1%
1'
0J
#1485000000
0%
0'
#1490000000
1%
1'
b00000000000000000000000000000000 F
1O
#1495000000
0%
0'
#1500000000
1%
1'
0O
#1505000000
0%
0'
#1510000000
1%
1'
1T
#1515000000
0%
0'
#1520000000
1%
1'
0T
#1525000000
0%
0'
#1530000000
1%
1'
b0 W
b00000000000000000000000000010100 X
1Y
#1535000000
0%
0'
#1540000000
1%
1'
0Y
#1545000000
0%
0'
#1550000000
1%
1'
b1 W
b00000000000000000000000000011110 X
1Y
#1555000000
0%
0'
#1560000000
1%
1'
0Y
#1565000000
0%
0'
#1570000000
1%
1'
b10 W
b00000000000000000000000000000000 X
1Y
#1575000000
0%
0'
#1580000000
1%
1'
0Y
#1585000000
0%
0'
#1590000000
1%
1'
b11 W
b00000000000000000000000000001010 X
1Y
#1595000000
0%
0'
#1600000000
1%
1'
0Y
#1605000000
0%
0'
#1610000000
1%
1'
b100 W
b00000000000000000000000000001011 X
1Y
#1615000000
0%
0'
#1620000000
1%
1'
0Y
#1625000000
0%
0'
#1630000000
1%
1'
b101 W
b00000000000000000000000000000100 X
1Y
#1635000000
0%
0'
#1640000000
1%
1'
0Y
#1645000000
0%
0'
#1650000000
1%
1'
b0 4
b000100000000000000000000000000000000000100000000000000000000000000000000000100000000000000000000000000000101 5
16
#1655000000
0%
0'
#1660000000
1%
1'
06
#1665000000
0%
0'
#1670000000
1%
1'
b1 4
16
#1675000000
0%
0'
#1680000000
1%
1'
06
#1685000000
0%
0'
#1690000000
1%
1'
b10 4
16
#1695000000
0%
0'
#1700000000
1%
1'
06
#1705000000
0%
0'
#1710000000
1%
1'
b11 4
b001000000000000000000000000000000001001000000000000000000000000000000010000100000000000000000000000000000101 5
16
#1715000000
0%
0'
#1720000000
1%
1'
06
#1725000000
0%
0'
#1730000000
1%
1'
b00000000000000000000000000000011 I
1J
#1735000000
0%
0'
#1740000000
1%
1'
0J
#1745000000
0%
0'
#1750000000
b1 $
1%
1'
b1 *
b00000000000000000000000000000011 F
#1755000000
0%
0'
#1760000000
b0 $
1%
1'
b0 *
1;
#1765000000
0%
0'
#1770000000
1%
1'
0;
#1775000000
0%
0'
#1780000000
1%
1'
1@
#1785000000
0%
0'
#1790000000
1%
1'
0@
#1795000000
0%
0'
#1800000000
1%
1'
1E
#1805000000
0%
0'
#1810000000
1%
1'
0E
#1815000000
0%
0'
#1820000000
1%
1'
b00000000000000000000000000000000 I
1J
#1825000000
0%
0'
#1830000000
1%
1'
0J
#1835000000
0%
0'
#1840000000
1%
1'
b00000000000000000000000000000000 F
1O
#1845000000
0%
0'
#1850000000
1%
1'
0O
#1855000000
0%
0'
#1860000000
1%
1'
1T
#1865000000
0%
0'
#1870000000
1%
1'
0T
#1875000000
0%
0'
#1880000000
1%
1'
b0 W
b00000000000000000000000000010100 X
1Y
#1885000000
0%
0'
#1890000000
1%
1'
0Y
#1895000000
0%
0'
#1900000000
1%
1'
b1 W
b00000000000000000000000000011110 X
1Y
#1905000000
0%
0'
#1910000000
1%
1'
0Y
#1915000000
0%
0'
#1920000000
1%
1'
b10 W
b00000000000000000000000000000000 X
1Y
#1925000000
0%
0'
#1930000000
1%
1'
0Y
#1935000000
0%
0'
#1940000000
1%
1'
b11 W
b00000000000000000000000000001010 X
1Y
#1945000000
0%
0'
#1950000000
1%
1'
0Y
#1955000000
0%
0'
#1960000000
1%
1'
b100 W
b00000000000000000000000000001011 X
1Y
#1965000000
0%
0'
#1970000000
1%
1'
0Y
#1975000000
0%
0'
#1980000000
1%
1'
b101 W
b00000000000000000000000000000100 X
1Y
#1985000000
0%
0'
#1990000000
1%
1'
0Y
#1995000000
0%
0'
#2000000000
1%
1'
b0 4
b000100000000000000000000000000000000000100000000000000000000000000000000000100000000000000000000000000000101 5
16
#2005000000
0%
0'
#2010000000
1%
1'
06
#2015000000
0%
0'
#2020000000
1%
1'
b1 4
16
#2025000000
0%
0'
#2030000000
1%
1'
06
#2035000000
0%
0'
#2040000000
1%
1'
b10 4
16
#2045000000
0%
0'
#2050000000
1%
1'
06
#2055000000
0%
0'
#2060000000
1%
1'
b11 4
b001000000000000000000000000000000001001000000000000000000000000000000010000100000000000000000000000000000101 5
16
#2065000000
0%
0'
#2070000000
1%
1'
06
#2075000000
0%
0'
#2080000000
1%
1'
b00000000000000000000000000000011 I
1J
#2085000000
0%
0'
#2090000000
1%
1'
0J
#2095000000
0%
0'
#2100000000
b1 $
1%
1'
b1 *
b00000000000000000000000000000011 F
#2105000000
0%
0'
#2110000000
b0 $
1%
1'
b0 *
1;
#2115000000
0%
0'
#2120000000
1%
1'
0;
#2125000000
0%
0'
#2130000000
1%
1'
1@
#2135000000
0%
0'
#2140000000
1%
1'
0@
#2145000000
0%
0'
#2150000000
1%
1'
1E
#2155000000
0%
0'
#2160000000
1%
1'
0E
#2165000000
0%
0'
#2170000000
1%
1'
b00000000000000000000000000000000 I
1J
#2175000000
0%
0'
#2180000000
1%
1'
0J
#2185000000
0%
0'
#2190000000
1%
1'
b00000000000000000000000000000000 F
1O
#2195000000
0%
0'
#2200000000
1%
1'
0O
#2205000000
0%
0'
#2210000000
1%
1'
1T
#2215000000
0%
0'
#2220000000
1%
1'
0T
#2225000000
0%
0'
#2230000000
1%
1'
b0 W
b00000000000000000000000000010100 X
1Y
#2235000000
0%
0'
#2240000000
1%
1'
0Y
#2245000000
0%
0'
#2250000000
1%
1'
b1 W
b00000000000000000000000000011110 X
1Y
#2255000000
0%
0'
#2260000000
1%
1'
0Y
#2265000000
0%
0'
#2270000000
1%
1'
b10 W
b00000000000000000000000000000000 X
1Y
#2275000000
0%
0'
#2280000000
1%
1'
0Y
#2285000000
0%
0'
#2290000000
1%
1'
b11 W
b00000000000000000000000000001010 X
1Y
#2295000000
0%
0'
#2300000000
1%
1'
0Y
#2305000000
0%
0'
#2310000000
1%
1'
b100 W
b00000000000000000000000000001011 X
1Y
#2315000000
0%
0'
#2320000000
1%
1'
0Y
#2325000000
0%
0'
#2330000000
1%
1'
b101 W
b00000000000000000000000000000100 X
1Y
#2335000000
0%
0'
#2340000000
1%
1'
0Y
#2345000000
0%
0'
#2350000000
1%
1'
b0 4
b000100000000000000000000000000000000000100000000000000000000000000000000000100000000000000000000000000000101 5
16
#2355000000
0%
0'
#2360000000
1%
1'
06
#2365000000
0%
0'
#2370000000
1%
1'
b1 4
16
#2375000000
0%
0'
#2380000000
1%
1'
06
#2385000000
0%
0'
#2390000000
1%
1'
b10 4
16
#2395000000
0%
0'
#2400000000
1%
1'
06
#2405000000
0%
0'
#2410000000
1%
1'
b11 4
b001000000000000000000000000000000001001000000000000000000000000000000010000100000000000000000000000000000101 5
16
#2415000000
0%
0'
#2420000000
1%
1'
06
#2425000000
0%
0'
#2430000000
1%
1'
b00000000000000000000000000000011 I
1J
#2435000000
0%
0'
#2440000000
1%
1'
0J
#2445000000
0%
0'
#2450000000
b1 $
1%
1'
b1 *
b00000000000000000000000000000011 F
#2455000000
0%
0'
#2460000000
b0 $
1%
1'
b0 *
1;
#2465000000
0%
0'
#2470000000
1%
1'
0;
#2475000000
0%
0'
#2480000000
1%
1'
1@
#2485000000
0%
0'
#2490000000
1%
1'
0@
#2495000000
0%
0'
#2500000000
1%
1'
1E
#2505000000
0%
0'
#2510000000
1%
1'
0E
#2515000000
0%
0'
#2520000000
1%
1'
b00000000000000000000000000000000 I
1J
#2525000000
0%
0'
#2530000000
1%
1'
0J
#2535000000
0%
0'
#2540000000
1%
1'
b00000000000000000000000000000000 F
1O
#2545000000
0%
0'
#2550000000
1%
1'
0O
#2555000000
0%
0'
#2560000000
1%
1'
1T
#2565000000
0%
0'
#2570000000
1%
1'
0T
#2575000000
0%
0'
#2580000000
1%
1'
b0 W
b00000000000000000000000000010100 X
1Y
#2585000000
0%
0'
#2590000000
1%
1'
0Y
#2595000000
0%
0'
#2600000000
1%
1'
b1 W
b00000000000000000000000000011110 X
1Y
#2605000000
0%
0'
#2610000000
1%
1'
0Y
#2615000000
0%
0'
#2620000000
1%
1'
b10 W
b00000000000000000000000000000000 X
1Y
#2625000000
0%
0'
#2630000000
1%
1'
0Y
#2635000000
0%
0'
#2640000000
1%
1'
b11 W
b00000000000000000000000000001010 X
1Y
#2645000000
0%
0'
#2650000000
1%
1'
0Y
#2655000000
0%
0'
#2660000000
1%
1'
b100 W
b00000000000000000000000000001011 X
1Y
#2665000000
0%
0'
#2670000000
1%
1'
0Y
#2675000000
0%
0'
#2680000000
1%
1'
b101 W
b00000000000000000000000000000100 X
1Y
#2685000000
0%
0'
#2690000000
1%
1'
0Y
#2695000000
0%
0'
#2700000000
1%
1'
b0 4
b000100000000000000000000000000000000000100000000000000000000000000000000000100000000000000000000000000000101 5
16
#2705000000
0%
0'
#2710000000
1%
1'
06
#2715000000
0%
0'
#2720000000
1%
1'
b1 4
16
#2725000000
0%
0'
#2730000000
1%
1'
06
#2735000000
0%
0'
#2740000000
1%
1'
b10 4
16
#2745000000
0%
0'
#2750000000
1%
1'
06
#2755000000
0%
0'
#2760000000
1%
1'
b11 4
b001000000000000000000000000000000001001000000000000000000000000000000010000100000000000000000000000000000101 5
16
#2765000000
0%
0'
#2770000000
1%
1'
06
#2775000000
0%
0'
#2780000000
1%
1'
b00000000000000000000000000000011 I
1J
#2785000000
0%
0'
#2790000000
1%
1'
0J
#2795000000
0%
0'
#2800000000
b1 $
1%
1'
b1 *
b00000000000000000000000000000011 F
#2805000000
0%
0'
#2810000000
b0 $
1%
1'
b0 *
1;
#2815000000
0%
0'
#2820000000
1%
1'
0;
#2825000000
0%
0'
#2830000000
1%
1'
1@
#2835000000
0%
0'
#2840000000
1%
1'
0@
#2845000000
0%
0'
#2850000000
1%
1'
1E
#2855000000
0%
0'
#2860000000
1%
1'
0E
#2865000000
0%
0'
#2870000000
1%
1'
b00000000000000000000000000000000 I
1J
#2875000000
0%
0'
#2880000000
1%
1'
0J
#2885000000
0%
0'
#2890000000
1%
1'
b00000000000000000000000000000000 F
1O
#2895000000
0%
0'
#2900000000
1%
1'
0O
#2905000000
0%
0'
#2910000000
1%
1'
1T
#2915000000
0%
0'
#2920000000
1%
1'
0T
#2925000000
0%
0'
#2930000000
1%
1'
b0 W
b00000000000000000000000000010100 X
1Y
#2935000000
0%
0'
#2940000000
1%
1'
0Y
#2945000000
0%
0'
#2950000000
1%
1'
b1 W
b00000000000000000000000000011110 X
1Y
#2955000000
0%
0'
#2960000000
1%
1'
0Y
#2965000000
0%
0'
#2970000000
1%
1'
b10 W
b00000000000000000000000000000000 X
1Y
#2975000000
0%
0'
#2980000000
1%
1'
0Y
#2985000000
0%
0'
#2990000000
1%
1'
b11 W
b00000000000000000000000000001010 X
1Y
#2995000000
0%
0'
#3000000000
1%
1'
0Y
#3005000000
0%
0'
#3010000000
1%
1'
b100 W
b00000000000000000000000000001011 X
1Y
#3015000000
0%
0'
#3020000000
1%
1'
0Y
#3025000000
0%
0'
#3030000000
1%
1'
b101 W
b00000000000000000000000000000100 X
1Y
#3035000000
0%
0'
#3040000000
1%
1'
0Y
#3045000000
0%
0'
#3050000000
1%
1'
b0 4
b000100000000000000000000000000000000000100000000000000000000000000000000000100000000000000000000000000000101 5
16
#3055000000
0%
0'
#3060000000
1%
1'
06
#3065000000
0%
0'
#3070000000
1%
1'
b1 4
16
#3075000000
0%
0'
#3080000000
1%
1'
06
#3085000000
0%
0'
#3090000000
1%
1'
b10 4
16
#3095000000
0%
0'
#3100000000
1%
1'
06
#3105000000
0%
0'
#3110000000
1%
1'
b11 4
b001000000000000000000000000000000001001000000000000000000000000000000010000100000000000000000000000000000101 5
16
#3115000000
0%
0'
#3120000000
1%
1'
06
#3125000000
0%
0'
#3130000000
1%
1'
b00000000000000000000000000000011 I
1J
#3135000000
0%
0'
#3140000000
1%
1'
0J
#3145000000
0%
0'
#3150000000
b1 $
1%
1'
b1 *
b00000000000000000000000000000011 F
#3155000000
0%
0'
#3160000000
b0 $
1%
1'
b0 *
1;
#3165000000
0%
0'
#3170000000
1%
1'
0;
#3175000000
0%
0'
#3180000000
1%
1'
1@
#3185000000
0%
0'
#3190000000
1%
1'
0@
#3195000000
0%
0'
#3200000000
1%
1'
1E
#3205000000
0%
0'
#3210000000
1%
1'
0E
#3215000000
0%
0'
#3220000000
1%
1'
b00000000000000000000000000000000 I
1J
#3225000000
0%
0'
#3230000000
1%
1'
0J
#3235000000
0%
0'
#3240000000
1%
1'
b00000000000000000000000000000000 F
1O
#3245000000
0%
0'
#3250000000
1%
1'
0O
#3255000000
0%
0'
#3260000000
1%
1'
1T
#3265000000
0%
0'
#3270000000
1%
1'
0T
#3275000000
0%
0'
#3280000000
1%
1'
b0 W
b00000000000000000000000000010100 X
1Y
#3285000000
0%
0'
#3290000000
1%
1'
0Y
#3295000000
0%
0'
#3300000000
1%
1'
b1 W
b00000000000000000000000000011110 X
1Y
#3305000000
0%
0'
#3310000000
1%
1'
0Y
#3315000000
0%
0'
#3320000000
1%
1'
b10 W
b00000000000000000000000000000000 X
1Y
#3325000000
0%
0'
#3330000000
1%
1'
0Y
#3335000000
0%
0'
#3340000000
1%
1'
b11 W
b00000000000000000000000000001010 X
1Y
#3345000000
0%
0'
#3350000000
1%
1'
0Y
#3355000000
0%
0'
#3360000000
1%
1'
b100 W
b00000000000000000000000000001011 X
1Y
#3365000000
0%
0'
#3370000000
1%
1'
0Y
#3375000000
0%
0'
#3380000000
1%
1'
b101 W
b00000000000000000000000000000100 X
1Y
#3385000000
0%
0'
#3390000000
1%
1'
0Y
#3395000000
0%
0'
#3400000000
1%
1'
b0 4
b000100000000000000000000000000000000000100000000000000000000000000000000000100000000000000000000000000000101 5
16
#3405000000
0%
0'
#3410000000
1%
1'
06
#3415000000
0%
0'
#3420000000
1%
1'
b1 4
16
#3425000000
0%
0'
#3430000000
1%
1'
06
#3435000000
0%
0'
#3440000000
1%
1'
b10 4
16
#3445000000
0%
0'
#3450000000
1%
1'
06
