RibbitEclat/target/tb.vcd
$date
  Mon Apr 15 18:55:50 2024
$end
$version
  GHDL v0
$end
$timescale
  1 fs
$end
$scope module standard $end
$upscope $end
$scope module std_logic_1164 $end
$upscope $end
$scope module numeric_std $end
$upscope $end
$scope module runtime $end
$upscope $end
$scope module textio $end
$upscope $end
$scope module tb_main $end
$var reg 1 ! tb_run $end
$var reg 1 " tb_argument[0:0] $end
$var reg 1 # tb_result[0:0] $end
$var reg 1 $ tb_rdy[0:0] $end
$var reg 1 % tb_clk $end
$var reg 1 & rst $end
$scope module u1 $end
$var reg 1 ' clk $end
$var reg 1 ( reset $end
$var reg 1 ) run $end
$var reg 1 * rdy[0:0] $end
$var reg 1 + argument[0:0] $end
$var reg 1 , result[0:0] $end
$comment \state\ is not handled $end
$comment arr164 is not handled $end
$var reg 32 - \$arr164_value\[0:31] $end
$var integer 32 . \$arr164_ptr\ $end
$var integer 32 / \$arr164_ptr_write\ $end
$var reg 32 0 \$arr164_write\[0:31] $end
$var reg 1 1 \$arr164_write_request\ $end
$comment arr165 is not handled $end
$var reg 32 2 \$arr165_value\[0:31] $end
$var integer 32 3 \$arr165_ptr\ $end
$var integer 32 4 \$arr165_ptr_write\ $end
$var reg 32 5 \$arr165_write\[0:31] $end
$var reg 1 6 \$arr165_write_request\ $end
$comment arr166 is not handled $end
$var reg 32 7 \$arr166_value\[0:31] $end
$var integer 32 8 \$arr166_ptr\ $end
$var integer 32 9 \$arr166_ptr_write\ $end
$var reg 32 : \$arr166_write\[0:31] $end
$var reg 1 ; \$arr166_write_request\ $end
$comment arr167 is not handled $end
$var reg 32 < \$arr167_value\[0:31] $end
$var integer 32 = \$arr167_ptr\ $end
$var integer 32 > \$arr167_ptr_write\ $end
$var reg 32 ? \$arr167_write\[0:31] $end
$var reg 1 @ \$arr167_write_request\ $end
$comment arr168 is not handled $end
$var reg 32 A \$arr168_value\[0:31] $end
$var integer 32 B \$arr168_ptr\ $end
$var integer 32 C \$arr168_ptr_write\ $end
$var reg 32 D \$arr168_write\[0:31] $end
$var reg 1 E \$arr168_write_request\ $end
$comment arr169 is not handled $end
$var reg 32 F \$arr169_value\[0:31] $end
$var integer 32 G \$arr169_ptr\ $end
$var integer 32 H \$arr169_ptr_write\ $end
$var reg 32 I \$arr169_write\[0:31] $end
$var reg 1 J \$arr169_write_request\ $end
$comment arr170 is not handled $end
$var reg 32 K \$arr170_value\[0:31] $end
$var integer 32 L \$arr170_ptr\ $end
$var integer 32 M \$arr170_ptr_write\ $end
$var reg 32 N \$arr170_write\[0:31] $end
$var reg 1 O \$arr170_write_request\ $end
$upscope $end
$upscope $end
$enddefinitions $end
#0
0!
bU "
bU #
bU $
1%
1&
1'
1(
0)
bU *
bU +
bU ,
bUUUUUUUUUUUUUUUUUUUUUUUUUUUUUUUU -
b0 .
b0 /
bUUUUUUUUUUUUUUUUUUUUUUUUUUUUUUUU 0
01
bUUUUUUUUUUUUUUUUUUUUUUUUUUUUUUUU 2
b0 3
b0 4
bUUUUUUUUUUUUUUUUUUUUUUUUUUUUUUUU 5
06
bUUUUUUUUUUUUUUUUUUUUUUUUUUUUUUUU 7
b0 8
b0 9
bUUUUUUUUUUUUUUUUUUUUUUUUUUUUUUUU :
0;
bUUUUUUUUUUUUUUUUUUUUUUUUUUUUUUUU <
b0 =
b0 >
bUUUUUUUUUUUUUUUUUUUUUUUUUUUUUUUU ?
0@
bUUUUUUUUUUUUUUUUUUUUUUUUUUUUUUUU A
b0 B
b0 C
bUUUUUUUUUUUUUUUUUUUUUUUUUUUUUUUU D
0E
bUUUUUUUUUUUUUUUUUUUUUUUUUUUUUUUU F
b0 G
b0 H
bUUUUUUUUUUUUUUUUUUUUUUUUUUUUUUUU I
0J
bUUUUUUUUUUUUUUUUUUUUUUUUUUUUUUUU K
b0 L
b0 M
bUUUUUUUUUUUUUUUUUUUUUUUUUUUUUUUU N
0O
#2000000
0&
0(
#5000000
0%
0'
#10000000
1!
b0 #
b0 $
1%
1'
1)
b0 *
b0 ,
b00000000000000000000000000000000 -
b00000000000000000000000000000000 2
b00000000000000010101111110010000 5
16
b00000000000000000000000000000000 7
b00000000000000000000000000000000 <
b00000000000000000000000000000000 A
b00000000000000000000000000000000 F
b00000000000000000000000000000000 K
#15000000
0%
0'
#20000000
1%
1'
06
#25000000
0%
0'
#30000000
1%
1'
b00000000000000010101111110010000 2
b00000000000000000000000000000000 :
1;
#35000000
0%
0'
#40000000
1%
1'
0;
#45000000
0%
0'
#50000000
1%
1'
b00000000000000000000000000000000 ?
1@
#55000000
0%
0'
#60000000
1%
1'
0@
#65000000
0%
0'
#70000000
1%
1'
b00000000000000000000000000000000 D
1E
#75000000
0%
0'
#80000000
1%
1'
0E
#85000000
0%
0'
#90000000
1%
1'
b00000000000000000000000000000000 I
1J
#95000000
0%
0'
#100000000
1%
1'
0J
#105000000
0%
0'
#110000000
1%
1'
b00000000000000010101111110010000 N
1O
#115000000
0%
0'
#120000000
1%
1'
0O
#125000000
0%
0'
#130000000
b1 #
b1 $
1%
1'
b1 *
b1 ,
b00000000000000010101111110010000 K
#135000000
0%
0'
#140000000
b0 $
1%
1'
b0 *
16
#145000000
0%
0'
#150000000
1%
1'
06
#155000000
0%
0'
#160000000
1%
1'
1;
#165000000
0%
0'
#170000000
1%
1'
0;
#175000000
0%
0'
#180000000
1%
1'
1@
#185000000
0%
0'
#190000000
1%
1'
0@
#195000000
0%
0'
#200000000
1%
1'
1E
#205000000
0%
0'
#210000000
1%
1'
0E
#215000000
0%
0'
#220000000
1%
1'
1J
#225000000
0%
0'
#230000000
1%
1'
0J
#235000000
0%
0'
#240000000
1%
1'
1O
#245000000
0%
0'
#250000000
1%
1'
0O
#255000000
0%
0'
#260000000
b1 $
1%
1'
b1 *
#265000000
0%
0'
#270000000
b0 $
1%
1'
b0 *
16
#275000000
0%
0'
#280000000
1%
1'
06
#285000000
0%
0'
#290000000
1%
1'
1;
#295000000
0%
0'
#300000000
1%
1'
0;
#305000000
0%
0'
#310000000
1%
1'
1@
#315000000
0%
0'
#320000000
1%
1'
0@
#325000000
0%
0'
#330000000
1%
1'
1E
#335000000
0%
0'
#340000000
1%
1'
0E
#345000000
0%
0'
#350000000
1%
1'
1J
#355000000
0%
0'
#360000000
1%
1'
0J
#365000000
0%
0'
#370000000
1%
1'
1O
#375000000
0%
0'
#380000000
1%
1'
0O
#385000000
0%
0'
#390000000
b1 $
1%
1'
b1 *
#395000000
0%
0'
#400000000
b0 $
1%
1'
b0 *
16
#405000000
0%
0'
#410000000
1%
1'
06
#415000000
0%
0'
#420000000
1%
1'
1;
#425000000
0%
0'
#430000000
1%
1'
0;
#435000000
0%
0'
#440000000
1%
1'
1@
#445000000
0%
0'
#450000000
1%
1'
0@
#455000000
0%
0'
#460000000
1%
1'
1E
#465000000
0%
0'
#470000000
1%
1'
0E
#475000000
0%
0'
#480000000
1%
1'
1J
#485000000
0%
0'
#490000000
1%
1'
0J
#495000000
0%
0'
#500000000
1%
1'
1O
#505000000
0%
0'
#510000000
1%
1'
0O
#515000000
0%
0'
#520000000
b1 $
1%
1'
b1 *
#525000000
0%
0'
#530000000
b0 $
1%
1'
b0 *
16
#535000000
0%
0'
#540000000
1%
1'
06
#545000000
0%
0'
#550000000
1%
1'
1;
#555000000
0%
0'
#560000000
1%
1'
0;
#565000000
0%
0'
#570000000
1%
1'
1@
#575000000
0%
0'
#580000000
1%
1'
0@
#585000000
0%
0'
#590000000
1%
1'
1E
#595000000
0%
0'
#600000000
1%
1'
0E
#605000000
0%
0'
#610000000
1%
1'
1J
#615000000
0%
0'
#620000000
1%
1'
0J
#625000000
0%
0'
#630000000
1%
1'
1O
#635000000
0%
0'
#640000000
1%
1'
0O
#645000000
0%
0'
#650000000
b1 $
1%
1'
b1 *
#655000000
0%
0'
#660000000
b0 $
1%
1'
b0 *
16
#665000000
0%
0'
#670000000
1%
1'
06
#675000000
0%
0'
#680000000
1%
1'
1;
#685000000
0%
0'
#690000000
1%
1'
0;
#695000000
0%
0'
#700000000
1%
1'
1@
#705000000
0%
0'
#710000000
1%
1'
0@
#715000000
0%
0'
#720000000
1%
1'
1E
#725000000
0%
0'
#730000000
1%
1'
0E
#735000000
0%
0'
#740000000
1%
1'
1J
#745000000
0%
0'
#750000000
1%
1'
0J
#755000000
0%
0'
#760000000
1%
1'
1O
#765000000
0%
0'
#770000000
1%
1'
0O
#775000000
0%
0'
#780000000
b1 $
1%
1'
b1 *
#785000000
0%
0'
#790000000
b0 $
1%
1'
b0 *
16
#795000000
0%
0'
#800000000
1%
1'
06
#805000000
0%
0'
#810000000
1%
1'
1;
#815000000
0%
0'
#820000000
1%
1'
0;
#825000000
0%
0'
#830000000
1%
1'
1@
#835000000
0%
0'
#840000000
1%
1'
0@
#845000000
0%
0'
#850000000
1%
1'
1E
#855000000
0%
0'
#860000000
1%
1'
0E
#865000000
0%
0'
#870000000
1%
1'
1J
#875000000
0%
0'
#880000000
1%
1'
0J
#885000000
0%
0'
#890000000
1%
1'
1O
#895000000
0%
0'
#900000000
1%
1'
0O
#905000000
0%
0'
#910000000
b1 $
1%
1'
b1 *
#915000000
0%
0'
#920000000
b0 $
1%
1'
b0 *
16
#925000000
0%
0'
#930000000
1%
1'
06
#935000000
0%
0'
#940000000
1%
1'
1;
#945000000
0%
0'
#950000000
1%
1'
0;
#955000000
0%
0'
#960000000
1%
1'
1@
#965000000
0%
0'
#970000000
1%
1'
0@
#975000000
0%
0'
#980000000
1%
1'
1E
#985000000
0%
0'
#990000000
1%
1'
0E
#995000000
0%
0'
#1000000000
1%
1'
1J
#1005000000
0%
0'
#1010000000
1%
1'
0J
#1015000000
0%
0'
#1020000000
1%
1'
1O
#1025000000
0%
0'
#1030000000
1%
1'
0O
#1035000000
0%
0'
#1040000000
b1 $
1%
1'
b1 *
#1045000000
0%
0'
#1050000000
b0 $
1%
1'
b0 *
16
#1055000000
0%
0'
#1060000000
1%
1'
06
#1065000000
0%
0'
#1070000000
1%
1'
1;
#1075000000
0%
0'
#1080000000
1%
1'
0;
#1085000000
0%
0'
#1090000000
1%
1'
1@
#1095000000
0%
0'
#1100000000
1%
1'
0@
#1105000000
0%
0'
#1110000000
1%
1'
1E
#1115000000
0%
0'
#1120000000
1%
1'
0E
#1125000000
0%
0'
#1130000000
1%
1'
1J
#1135000000
0%
0'
#1140000000
1%
1'
0J
#1145000000
0%
0'
#1150000000
1%
1'
1O
#1155000000
0%
0'
#1160000000
1%
1'
0O
#1165000000
0%
0'
#1170000000
b1 $
1%
1'
b1 *
#1175000000
0%
0'
#1180000000
b0 $
1%
1'
b0 *
16
#1185000000
0%
0'
#1190000000
1%
1'
06
#1195000000
0%
0'
#1200000000
1%
1'
1;
#1205000000
0%
0'
#1210000000
1%
1'
0;
#1215000000
0%
0'
#1220000000
1%
1'
1@
#1225000000
0%
0'
#1230000000
1%
1'
0@
#1235000000
0%
0'
#1240000000
1%
1'
1E
#1245000000
0%
0'
#1250000000
1%
1'
0E
#1255000000
0%
0'
#1260000000
1%
1'
1J
#1265000000
0%
0'
#1270000000
1%
1'
0J
#1275000000
0%
0'
#1280000000
1%
1'
1O
#1285000000
0%
0'
#1290000000
1%
1'
0O
#1295000000
0%
0'
#1300000000
b1 $
1%
1'
b1 *
#1305000000
0%
0'
#1310000000
b0 $
1%
1'
b0 *
16
#1315000000
0%
0'
#1320000000
1%
1'
06
#1325000000
0%
0'
#1330000000
1%
1'
1;
#1335000000
0%
0'
#1340000000
1%
1'
0;
#1345000000
0%
0'
#1350000000
1%
1'
1@
#1355000000
0%
0'
#1360000000
1%
1'
0@
#1365000000
0%
0'
#1370000000
1%
1'
1E
#1375000000
0%
0'
#1380000000
1%
1'
0E
#1385000000
0%
0'
#1390000000
1%
1'
1J
#1395000000
0%
0'
#1400000000
1%
1'
0J
#1405000000
0%
0'
#1410000000
1%
1'
1O
#1415000000
0%
0'
#1420000000
1%
1'
0O
#1425000000
0%
0'
#1430000000
b1 $
1%
1'
b1 *
#1435000000
0%
0'
#1440000000
b0 $
1%
1'
b0 *
16
#1445000000
0%
0'
#1450000000
1%
1'
06
#1455000000
0%
0'
#1460000000
1%
1'
1;
#1465000000
0%
0'
#1470000000
1%
1'
0;
#1475000000
0%
0'
#1480000000
1%
1'
1@
#1485000000
0%
0'
#1490000000
1%
1'
0@
#1495000000
0%
0'
#1500000000
1%
1'
1E
#1505000000
0%
0'
#1510000000
1%
1'
0E
#1515000000
0%
0'
#1520000000
1%
1'
1J
#1525000000
0%
0'
#1530000000
1%
1'
0J
#1535000000
0%
0'
#1540000000
1%
1'
1O
#1545000000
0%
0'
#1550000000
1%
1'
0O
#1555000000
0%
0'
#1560000000
b1 $
1%
1'
b1 *
#1565000000
0%
0'
#1570000000
b0 $
1%
1'
b0 *
16
#1575000000
0%
0'
#1580000000
1%
1'
06
#1585000000
0%
0'
#1590000000
1%
1'
1;
#1595000000
0%
0'
#1600000000
1%
1'
0;
#1605000000
0%
0'
#1610000000
1%
1'
1@
#1615000000
0%
0'
#1620000000
1%
1'
0@
#1625000000
0%
0'
#1630000000
1%
1'
1E
#1635000000
0%
0'
#1640000000
1%
1'
0E
#1645000000
0%
0'
#1650000000
1%
1'
1J
#1655000000
0%
0'
#1660000000
1%
1'
0J
#1665000000
0%
0'
#1670000000
1%
1'
1O
#1675000000
0%
0'
#1680000000
1%
1'
0O
#1685000000
0%
0'
#1690000000
b1 $
1%
1'
b1 *
#1695000000
0%
0'
#1700000000
b0 $
1%
1'
b0 *
16
#1705000000
0%
0'
#1710000000
1%
1'
06
#1715000000
0%
0'
#1720000000
1%
1'
1;
#1725000000
0%
0'
#1730000000
1%
1'
0;
#1735000000
0%
0'
#1740000000
1%
1'
1@
#1745000000
0%
0'
#1750000000
1%
1'
0@
#1755000000
0%
0'
#1760000000
1%
1'
1E
#1765000000
0%
0'
#1770000000
1%
1'
0E
#1775000000
0%
0'
#1780000000
1%
1'
1J
#1785000000
0%
0'
#1790000000
1%
1'
0J
#1795000000
0%
0'
#1800000000
1%
1'
1O
#1805000000
0%
0'
#1810000000
1%
1'
0O
#1815000000
0%
0'
#1820000000
b1 $
1%
1'
b1 *
#1825000000
0%
0'
#1830000000
b0 $
1%
1'
b0 *
16
#1835000000
0%
0'
#1840000000
1%
1'
06
#1845000000
0%
0'
#1850000000
1%
1'
1;
#1855000000
0%
0'
#1860000000
1%
1'
0;
#1865000000
0%
0'
#1870000000
1%
1'
1@
#1875000000
0%
0'
#1880000000
1%
1'
0@
#1885000000
0%
0'
#1890000000
1%
1'
1E
#1895000000
0%
0'
#1900000000
1%
1'
0E
#1905000000
0%
0'
#1910000000
1%
1'
1J
#1915000000
0%
0'
#1920000000
1%
1'
0J
#1925000000
0%
0'
#1930000000
1%
1'
1O
#1935000000
0%
0'
#1940000000
1%
1'
0O
#1945000000
0%
0'
#1950000000
b1 $
1%
1'
b1 *
#1955000000
0%
0'
#1960000000
b0 $
1%
1'
b0 *
16
#1965000000
0%
0'
#1970000000
1%
1'
06
#1975000000
0%
0'
#1980000000
1%
1'
1;
#1985000000
0%
0'
#1990000000
1%
1'
0;
#1995000000
0%
0'
#2000000000
1%
1'
1@
#2005000000
0%
0'
#2010000000
1%
1'
0@
#2015000000
0%
0'
#2020000000
1%
1'
1E
#2025000000
0%
0'
#2030000000
1%
1'
0E
#2035000000
0%
0'
#2040000000
1%
1'
1J
#2045000000
0%
0'
#2050000000
1%
1'
0J
#2055000000
0%
0'
#2060000000
1%
1'
1O
#2065000000
0%
0'
#2070000000
1%
1'
0O
#2075000000
0%
0'
#2080000000
b1 $
1%
1'
b1 *
#2085000000
0%
0'
#2090000000
b0 $
1%
1'
b0 *
16
#2095000000
0%
0'
#2100000000
1%
1'
06
#2105000000
0%
0'
#2110000000
1%
1'
1;
#2115000000
0%
0'
#2120000000
1%
1'
0;
#2125000000
0%
0'
#2130000000
1%
1'
1@
#2135000000
0%
0'
#2140000000
1%
1'
0@
#2145000000
0%
0'
#2150000000
1%
1'
1E
#2155000000
0%
0'
#2160000000
1%
1'
0E
#2165000000
0%
0'
#2170000000
1%
1'
1J
#2175000000
0%
0'
#2180000000
1%
1'
0J
#2185000000
0%
0'
#2190000000
1%
1'
1O
#2195000000
0%
0'
#2200000000
1%
1'
0O
#2205000000
0%
0'
#2210000000
b1 $
1%
1'
b1 *
#2215000000
0%
0'
#2220000000
b0 $
1%
1'
b0 *
16
#2225000000
0%
0'
#2230000000
1%
1'
06
#2235000000
0%
0'
#2240000000
1%
1'
1;
#2245000000
0%
0'
#2250000000
1%
1'
0;
#2255000000
0%
0'
#2260000000
1%
1'
1@
#2265000000
0%
0'
#2270000000
1%
1'
0@
#2275000000
0%
0'
#2280000000
1%
1'
1E
#2285000000
0%
0'
#2290000000
1%
1'
0E
#2295000000
0%
0'
#2300000000
1%
1'
1J
#2305000000
0%
0'
#2310000000
1%
1'
0J
#2315000000
0%
0'
#2320000000
1%
1'
1O
#2325000000
0%
0'
#2330000000
1%
1'
0O
#2335000000
0%
0'
#2340000000
b1 $
1%
1'
b1 *
#2345000000
0%
0'
#2350000000
b0 $
1%
1'
b0 *
16
#2355000000
0%
0'
#2360000000
1%
1'
06
#2365000000
0%
0'
#2370000000
1%
1'
1;
#2375000000
0%
0'
#2380000000
1%
1'
0;
#2385000000
0%
0'
#2390000000
1%
1'
1@
#2395000000
0%
0'
#2400000000
1%
1'
0@
#2405000000
0%
0'
#2410000000
1%
1'
1E
#2415000000
0%
0'
#2420000000
1%
1'
0E
#2425000000
0%
0'
#2430000000
1%
1'
1J
#2435000000
0%
0'
#2440000000
1%
1'
0J
#2445000000
0%
0'
#2450000000
1%
1'
1O
#2455000000
0%
0'
#2460000000
1%
1'
0O
#2465000000
0%
0'
#2470000000
b1 $
1%
1'
b1 *
#2475000000
0%
0'
#2480000000
b0 $
1%
1'
b0 *
16
#2485000000
0%
0'
#2490000000
1%
1'
06
#2495000000
0%
0'
#2500000000
1%
1'
1;
#2505000000
0%
0'
#2510000000
1%
1'
0;
#2515000000
0%
0'
#2520000000
1%
1'
1@
#2525000000
0%
0'
#2530000000
1%
1'
0@
#2535000000
0%
0'
#2540000000
1%
1'
1E
#2545000000
0%
0'
#2550000000
1%
1'
0E
#2555000000
0%
0'
#2560000000
1%
1'
1J
#2565000000
0%
0'
#2570000000
1%
1'
0J
#2575000000
0%
0'
#2580000000
1%
1'
1O
#2585000000
0%
0'
#2590000000
1%
1'
0O
#2595000000
0%
0'
#2600000000
b1 $
1%
1'
b1 *
#2605000000
0%
0'
#2610000000
b0 $
1%
1'
b0 *
16
#2615000000
0%
0'
#2620000000
1%
1'
06
#2625000000
0%
0'
#2630000000
1%
1'
1;
#2635000000
0%
0'
#2640000000
1%
1'
0;
#2645000000
0%
0'
#2650000000
1%
1'
1@
#2655000000
0%
0'
#2660000000
1%
1'
0@
#2665000000
0%
0'
#2670000000
1%
1'
1E
#2675000000
0%
0'
#2680000000
1%
1'
0E
#2685000000
0%
0'
#2690000000
1%
1'
1J
#2695000000
0%
0'
#2700000000
1%
1'
0J
#2705000000
0%
0'
#2710000000
1%
1'
1O
#2715000000
0%
0'
#2720000000
1%
1'
0O
#2725000000
0%
0'
#2730000000
b1 $
1%
1'
b1 *
#2735000000
0%
0'
#2740000000
b0 $
1%
1'
b0 *
16
#2745000000
0%
0'
#2750000000
1%
1'
06
#2755000000
0%
0'
#2760000000
1%
1'
1;
#2765000000
0%
0'
#2770000000
1%
1'
0;
#2775000000
0%
0'
#2780000000
1%
1'
1@
#2785000000
0%
0'
#2790000000
1%
1'
0@
#2795000000
0%
0'
#2800000000
1%
1'
1E
#2805000000
0%
0'
#2810000000
1%
1'
0E
#2815000000
0%
0'
#2820000000
1%
1'
1J
#2825000000
0%
0'
#2830000000
1%
1'
0J
#2835000000
0%
0'
#2840000000
1%
1'
1O
#2845000000
0%
0'
#2850000000
1%
1'
0O
#2855000000
0%
0'
#2860000000
b1 $
1%
1'
b1 *
#2865000000
0%
0'
#2870000000
b0 $
1%
1'
b0 *
16
#2875000000
0%
0'
#2880000000
1%
1'
06
#2885000000
0%
0'
#2890000000
1%
1'
1;
#2895000000
0%
0'
#2900000000
1%
1'
0;
#2905000000
0%
0'
#2910000000
1%
1'
1@
#2915000000
0%
0'
#2920000000
1%
1'
0@
#2925000000
0%
0'
#2930000000
1%
1'
1E
#2935000000
0%
0'
#2940000000
1%
1'
0E
#2945000000
0%
0'
#2950000000
1%
1'
1J
#2955000000
0%
0'
#2960000000
1%
1'
0J
#2965000000
0%
0'
#2970000000
1%
1'
1O
#2975000000
0%
0'
#2980000000
1%
1'
0O
#2985000000
0%
0'
#2990000000
b1 $
1%
1'
b1 *
#2995000000
0%
0'
#3000000000
b0 $
1%
1'
b0 *
16
#3005000000
0%
0'
#3010000000
1%
1'
06
#3015000000
0%
0'
#3020000000
1%
1'
1;
#3025000000
0%
0'
#3030000000
1%
1'
0;
#3035000000
0%
0'
#3040000000
1%
1'
1@
#3045000000
0%
0'
#3050000000
1%
1'
0@
#3055000000
0%
0'
#3060000000
1%
1'
1E
#3065000000
0%
0'
#3070000000
1%
1'
0E
#3075000000
0%
0'
#3080000000
1%
1'
1J
#3085000000
0%
0'
#3090000000
1%
1'
0J
#3095000000
0%
0'
#3100000000
1%
1'
1O
#3105000000
0%
0'
#3110000000
1%
1'
0O
#3115000000
0%
0'
#3120000000
b1 $
1%
1'
b1 *
#3125000000
0%
0'
#3130000000
b0 $
1%
1'
b0 *
16
#3135000000
0%
0'
#3140000000
1%
1'
06
#3145000000
0%
0'
#3150000000
1%
1'
1;
#3155000000
0%
0'
#3160000000
1%
1'
0;
#3165000000
0%
0'
#3170000000
1%
1'
1@
#3175000000
0%
0'
#3180000000
1%
1'
0@
#3185000000
0%
0'
#3190000000
1%
1'
1E
#3195000000
0%
0'
#3200000000
1%
1'
0E
#3205000000
0%
0'
#3210000000
1%
1'
1J
#3215000000
0%
0'
#3220000000
1%
1'
0J
#3225000000
0%
0'
#3230000000
1%
1'
1O
#3235000000
0%
0'
#3240000000
1%
1'
0O
#3245000000
0%
0'
#3250000000
b1 $
1%
1'
b1 *
#3255000000
0%
0'
#3260000000
b0 $
1%
1'
b0 *
16
#3265000000
0%
0'
#3270000000
1%
1'
06
#3275000000
0%
0'
#3280000000
1%
1'
1;
#3285000000
0%
0'
#3290000000
1%
1'
0;
#3295000000
0%
0'
#3300000000
1%
1'
1@
#3305000000
0%
0'
#3310000000
1%
1'
0@
#3315000000
0%
0'
#3320000000
1%
1'
1E
#3325000000
0%
0'
#3330000000
1%
1'
0E
#3335000000
0%
0'
#3340000000
1%
1'
1J
#3345000000
0%
0'
#3350000000
1%
1'
0J
#3355000000
0%
0'
#3360000000
1%
1'
1O
#3365000000
0%
0'
#3370000000
1%
1'
0O
#3375000000
0%
0'
#3380000000
b1 $
1%
1'
b1 *
#3385000000
0%
0'
#3390000000
b0 $
1%
1'
b0 *
16
#3395000000
0%
0'
#3400000000
1%
1'
06
#3405000000
0%
0'
#3410000000
1%
1'
1;
#3415000000
0%
0'
#3420000000
1%
1'
0;
#3425000000
0%
0'
#3430000000
1%
1'
1@
#3435000000
0%
0'
#3440000000
1%
1'
0@
#3445000000
0%
0'
#3450000000
1%
1'
1E
#3455000000
0%
0'
#3460000000
1%
1'
0E
#3465000000
0%
0'
#3470000000
1%
1'
1J
#3475000000
0%
0'
#3480000000
1%
1'
0J
#3485000000
0%
0'
#3490000000
1%
1'
1O
#3495000000
0%
0'
#3500000000
1%
1'
0O
#3505000000
0%
0'
#3510000000
b1 $
1%
1'
b1 *
#3515000000
0%
0'
#3520000000
b0 $
1%
1'
b0 *
16
#3525000000
0%
0'
#3530000000
1%
1'
06
#3535000000
0%
0'
#3540000000
1%
1'
1;
#3545000000
0%
0'
#3550000000
1%
1'
0;
#3555000000
0%
0'
#3560000000
1%
1'
1@
#3565000000
0%
0'
#3570000000
1%
1'
0@
#3575000000
0%
0'
#3580000000
1%
1'
1E
#3585000000
0%
0'
#3590000000
1%
1'
0E
#3595000000
0%
0'
#3600000000
1%
1'
1J
#3605000000
0%
0'
#3610000000
1%
1'
0J
#3615000000
0%
0'
#3620000000
1%
1'
1O
#3625000000
0%
0'
#3630000000
1%
1'
0O
#3635000000
0%
0'
#3640000000
b1 $
1%
1'
b1 *
#3645000000
0%
0'
#3650000000
b0 $
1%
1'
b0 *
16
#3655000000
0%
0'
#3660000000
1%
1'
06
#3665000000
0%
0'
#3670000000
1%
1'
1;
#3675000000
0%
0'
#3680000000
1%
1'
0;
#3685000000
0%
0'
#3690000000
1%
1'
1@
#3695000000
0%
0'
#3700000000
1%
1'
0@
#3705000000
0%
0'
#3710000000
1%
1'
1E
#3715000000
0%
0'
#3720000000
1%
1'
0E
#3725000000
0%
0'
#3730000000
1%
1'
1J
#3735000000
0%
0'
#3740000000
1%
1'
0J
#3745000000
0%
0'
#3750000000
1%
1'
1O
#3755000000
0%
0'
#3760000000
1%
1'
0O
#3765000000
0%
0'
#3770000000
b1 $
1%
1'
b1 *
#3775000000
0%
0'
#3780000000
b0 $
1%
1'
b0 *
16
#3785000000
0%
0'
#3790000000
1%
1'
06
#3795000000
0%
0'
#3800000000
1%
1'
1;
#3805000000
0%
0'
#3810000000
1%
1'
0;
#3815000000
0%
0'
#3820000000
1%
1'
1@
#3825000000
0%
0'
#3830000000
1%
1'
0@
#3835000000
0%
0'
#3840000000
1%
1'
1E
#3845000000
0%
0'
#3850000000
1%
1'
0E
#3855000000
0%
0'
#3860000000
1%
1'
1J
#3865000000
0%
0'
#3870000000
1%
1'
0J
#3875000000
0%
0'
#3880000000
1%
1'
1O
#3885000000
0%
0'
#3890000000
1%
1'
0O
#3895000000
0%
0'
#3900000000
b1 $
1%
1'
b1 *
#3905000000
0%
0'
#3910000000
b0 $
1%
1'
b0 *
16
#3915000000
0%
0'
#3920000000
1%
1'
06
#3925000000
0%
0'
#3930000000
1%
1'
1;
#3935000000
0%
0'
#3940000000
1%
1'
0;
#3945000000
0%
0'
#3950000000
1%
1'
1@
#3955000000
0%
0'
#3960000000
1%
1'
0@
#3965000000
0%
0'
#3970000000
1%
1'
1E
#3975000000
0%
0'
#3980000000
1%
1'
0E
#3985000000
0%
0'
#3990000000
1%
1'
1J
#3995000000
0%
0'
#4000000000
1%
1'
0J
#4005000000
0%
0'
#4010000000
1%
1'
1O
#4015000000
0%
0'
#4020000000
1%
1'
0O
#4025000000
0%
0'
#4030000000
b1 $
1%
1'
b1 *
#4035000000
0%
0'
#4040000000
b0 $
1%
1'
b0 *
16
#4045000000
0%
0'
#4050000000
1%
1'
06
#4055000000
0%
0'
#4060000000
1%
1'
1;
#4065000000
0%
0'
#4070000000
1%
1'
0;
#4075000000
0%
0'
#4080000000
1%
1'
1@
#4085000000
0%
0'
#4090000000
1%
1'
0@
#4095000000
0%
0'
#4100000000
1%
1'
1E
#4105000000
0%
0'
#4110000000
1%
1'
0E
#4115000000
0%
0'
#4120000000
1%
1'
1J
#4125000000
0%
0'
#4130000000
1%
1'
0J
#4135000000
0%
0'
#4140000000
1%
1'
1O
#4145000000
0%
0'
#4150000000
1%
1'
0O
#4155000000
0%
0'
#4160000000
b1 $
1%
1'
b1 *
#4165000000
0%
0'
#4170000000
b0 $
1%
1'
b0 *
16
#4175000000
0%
0'
#4180000000
1%
1'
06
#4185000000
0%
0'
#4190000000
1%
1'
1;
#4195000000
0%
0'
#4200000000
1%
1'
0;
#4205000000
0%
0'
#4210000000
1%
1'
1@
#4215000000
0%
0'
#4220000000
1%
1'
0@
#4225000000
0%
0'
#4230000000
1%
1'
1E
#4235000000
0%
0'
#4240000000
1%
1'
0E
#4245000000
0%
0'
#4250000000
1%
1'
1J
#4255000000
0%
0'
#4260000000
1%
1'
0J
#4265000000
0%
0'
#4270000000
1%
1'
1O
#4275000000
0%
0'
#4280000000
1%
1'
0O
#4285000000
0%
0'
#4290000000
b1 $
1%
1'
b1 *
#4295000000
0%
0'
#4300000000
b0 $
1%
1'
b0 *
16
#4305000000
0%
0'
#4310000000
1%
1'
06
#4315000000
0%
0'
#4320000000
1%
1'
1;
#4325000000
0%
0'
#4330000000
1%
1'
0;
#4335000000
0%
0'
#4340000000
1%
1'
1@
#4345000000
0%
0'
#4350000000
1%
1'
0@
#4355000000
0%
0'
#4360000000
1%
1'
1E
#4365000000
0%
0'
#4370000000
1%
1'
0E
#4375000000
0%
0'
#4380000000
1%
1'
1J
#4385000000
0%
0'
#4390000000
1%
1'
0J
#4395000000
0%
0'
#4400000000
1%
1'
1O
#4405000000
0%
0'
#4410000000
1%
1'
0O
#4415000000
0%
0'
#4420000000
b1 $
1%
1'
b1 *
#4425000000
0%
0'
#4430000000
b0 $
1%
1'
b0 *
16
#4435000000
0%
0'
#4440000000
1%
1'
06
#4445000000
0%
0'
#4450000000
1%
1'
1;
#4455000000
0%
0'
#4460000000
1%
1'
0;
#4465000000
0%
0'
#4470000000
1%
1'
1@
#4475000000
0%
0'
#4480000000
1%
1'
0@
#4485000000
0%
0'
#4490000000
1%
1'
1E
#4495000000
0%
0'
#4500000000
1%
1'
0E
#4505000000
0%
0'
#4510000000
1%
1'
1J
#4515000000
0%
0'
#4520000000
1%
1'
0J
#4525000000
0%
0'
#4530000000
1%
1'
1O
#4535000000
0%
0'
#4540000000
1%
1'
0O
#4545000000
0%
0'
#4550000000
b1 $
1%
1'
b1 *
#4555000000
0%
0'
#4560000000
b0 $
1%
1'
b0 *
16
#4565000000
0%
0'
#4570000000
1%
1'
06
#4575000000
0%
0'
#4580000000
1%
1'
1;
#4585000000
0%
0'
#4590000000
1%
1'
0;
#4595000000
0%
0'
#4600000000
1%
1'
1@
