ribbit-main/src/host/RibbitEclat/target/tb.vcd
$date
  Sun May 12 15:02:40 2024
$end
$version
  GHDL v0
$end
$timescale
  1 fs
$end
$scope module standard $end
$upscope $end
$scope module std_logic_1164 $end
$upscope $end
$scope module numeric_std $end
$upscope $end
$scope module runtime $end
$upscope $end
$scope module textio $end
$upscope $end
$scope module tb_main $end
$var reg 1 ! tb_run $end
$var reg 1 " tb_argument[0:0] $end
$var reg 1 # tb_result[0:0] $end
$var reg 1 $ tb_rdy[0:0] $end
$var reg 1 % tb_clk $end
$var reg 1 & rst $end
$scope module u1 $end
$var reg 1 ' clk $end
$var reg 1 ( reset $end
$var reg 1 ) run $end
$var reg 1 * rdy[0:0] $end
$var reg 1 + argument[0:0] $end
$var reg 1 , result[0:0] $end
$comment \state\ is not handled $end
$comment arr3236 is not handled $end
$var reg 32 - \$arr3236_value\[0:31] $end
$var integer 32 . \$arr3236_ptr\ $end
$var integer 32 / \$arr3236_ptr_write\ $end
$var reg 32 0 \$arr3236_write\[0:31] $end
$var reg 1 1 \$arr3236_write_request\ $end
$comment arr3237 is not handled $end
$var reg 108 2 \$arr3237_value\[0:107] $end
$var integer 32 3 \$arr3237_ptr\ $end
$var integer 32 4 \$arr3237_ptr_write\ $end
$var reg 108 5 \$arr3237_write\[0:107] $end
$var reg 1 6 \$arr3237_write_request\ $end
$comment arr3238 is not handled $end
$var reg 32 7 \$arr3238_value\[0:31] $end
$var integer 32 8 \$arr3238_ptr\ $end
$var integer 32 9 \$arr3238_ptr_write\ $end
$var reg 32 : \$arr3238_write\[0:31] $end
$var reg 1 ; \$arr3238_write_request\ $end
$comment arr3239 is not handled $end
$var reg 32 < \$arr3239_value\[0:31] $end
$var integer 32 = \$arr3239_ptr\ $end
$var integer 32 > \$arr3239_ptr_write\ $end
$var reg 32 ? \$arr3239_write\[0:31] $end
$var reg 1 @ \$arr3239_write_request\ $end
$comment arr3240 is not handled $end
$var reg 32 A \$arr3240_value\[0:31] $end
$var integer 32 B \$arr3240_ptr\ $end
$var integer 32 C \$arr3240_ptr_write\ $end
$var reg 32 D \$arr3240_write\[0:31] $end
$var reg 1 E \$arr3240_write_request\ $end
$comment arr3241 is not handled $end
$var reg 32 F \$arr3241_value\[0:31] $end
$var integer 32 G \$arr3241_ptr\ $end
$var integer 32 H \$arr3241_ptr_write\ $end
$var reg 32 I \$arr3241_write\[0:31] $end
$var reg 1 J \$arr3241_write_request\ $end
$comment arr3242 is not handled $end
$var reg 32 K \$arr3242_value\[0:31] $end
$var integer 32 L \$arr3242_ptr\ $end
$var integer 32 M \$arr3242_ptr_write\ $end
$var reg 32 N \$arr3242_write\[0:31] $end
$var reg 1 O \$arr3242_write_request\ $end
$comment arr3243 is not handled $end
$var reg 32 P \$arr3243_value\[0:31] $end
$var integer 32 Q \$arr3243_ptr\ $end
$var integer 32 R \$arr3243_ptr_write\ $end
$var reg 32 S \$arr3243_write\[0:31] $end
$var reg 1 T \$arr3243_write_request\ $end
$upscope $end
$upscope $end
$enddefinitions $end
#0
0!
bU "
bU #
bU $
1%
1&
1'
1(
0)
bU *
bU +
bU ,
bUUUUUUUUUUUUUUUUUUUUUUUUUUUUUUUU -
b0 .
b0 /
bUUUUUUUUUUUUUUUUUUUUUUUUUUUUUUUU 0
01
bUUUUUUUUUUUUUUUUUUUUUUUUUUUUUUUUUUUUUUUUUUUUUUUUUUUUUUUUUUUUUUUUUUUUUUUUUUUUUUUUUUUUUUUUUUUUUUUUUUUUUUUUUUUU 2
b0 3
b0 4
bUUUUUUUUUUUUUUUUUUUUUUUUUUUUUUUUUUUUUUUUUUUUUUUUUUUUUUUUUUUUUUUUUUUUUUUUUUUUUUUUUUUUUUUUUUUUUUUUUUUUUUUUUUUU 5
06
bUUUUUUUUUUUUUUUUUUUUUUUUUUUUUUUU 7
b0 8
b0 9
bUUUUUUUUUUUUUUUUUUUUUUUUUUUUUUUU :
0;
bUUUUUUUUUUUUUUUUUUUUUUUUUUUUUUUU <
b0 =
b0 >
bUUUUUUUUUUUUUUUUUUUUUUUUUUUUUUUU ?
0@
bUUUUUUUUUUUUUUUUUUUUUUUUUUUUUUUU A
b0 B
b0 C
bUUUUUUUUUUUUUUUUUUUUUUUUUUUUUUUU D
0E
bUUUUUUUUUUUUUUUUUUUUUUUUUUUUUUUU F
b0 G
b0 H
bUUUUUUUUUUUUUUUUUUUUUUUUUUUUUUUU I
0J
bUUUUUUUUUUUUUUUUUUUUUUUUUUUUUUUU K
b0 L
b0 M
bUUUUUUUUUUUUUUUUUUUUUUUUUUUUUUUU N
0O
bUUUUUUUUUUUUUUUUUUUUUUUUUUUUUUUU P
b0 Q
b0 R
bUUUUUUUUUUUUUUUUUUUUUUUUUUUUUUUU S
0T
#2000000
0&
0(
#5000000
0%
0'
#10000000
1!
b0 #
b0 $
1%
1'
1)
b0 *
b0 ,
b00000000000000000000000000000000 -
b000000000000000000000000000000000000000000000000000000000000000000000000000000000000000000000000000000000000 2
b00000000000000000000000000000000 7
b00000000000000000000000000000000 <
b11111111111111111111111111111111 ?
1@
b00000000000000000000000000000000 A
b00000000000000000000000000000000 F
b00000000000000000000000000000000 K
b00000000000000000000000000000000 P
#15000000
0%
0'
#20000000
1%
1'
0@
#25000000
0%
0'
#30000000
1%
1'
b00000000000000000010001100101000 :
1;
b11111111111111111111111111111111 <
#35000000
0%
0'
#40000000
1%
1'
0;
#45000000
0%
0'
#50000000
1%
1'
b00000000000000000010001100101000 7
b11111111111111111111111111111111 D
1E
#55000000
0%
0'
#60000000
1%
1'
0E
#65000000
0%
0'
#70000000
1%
1'
b11111111111111111111111111111111 A
b00000000000000000000000000000000 I
1J
#75000000
0%
0'
#80000000
1%
1'
0J
#85000000
0%
0'
#90000000
1%
1'
b11111111111111111111111111111111 N
1O
#95000000
0%
0'
#100000000
1%
1'
0O
#105000000
0%
0'
#110000000
1%
1'
b11111111111111111111111111111111 K
b00000000000000000000000000010100 S
1T
#115000000
0%
0'
#120000000
1%
1'
0T
#125000000
0%
0'
#130000000
1%
1'
b00000000000000000000000000010100 P
b1 R
b00000000000000000000000000011110 S
1T
#135000000
0%
0'
#140000000
1%
1'
0T
#145000000
0%
0'
#150000000
1%
1'
b10 R
b00000000000000000000000000000000 S
1T
#155000000
0%
0'
#160000000
1%
1'
0T
#165000000
0%
0'
#170000000
1%
1'
b11 R
b00000000000000000000000000001010 S
1T
#175000000
0%
0'
#180000000
1%
1'
0T
#185000000
0%
0'
#190000000
1%
1'
b100 R
b00000000000000000000000000001011 S
1T
#195000000
0%
0'
#200000000
1%
1'
0T
#205000000
0%
0'
#210000000
1%
1'
b101 R
b00000000000000000000000000000100 S
1T
#215000000
0%
0'
#220000000
1%
1'
0T
#225000000
0%
0'
#230000000
b1 #
b1 $
1%
1'
b1 *
b1 ,
#235000000
0%
0'
#240000000
b0 $
1%
1'
b0 *
1@
#245000000
0%
0'
#250000000
1%
1'
0@
#255000000
0%
0'
#260000000
1%
1'
1;
#265000000
0%
0'
#270000000
1%
1'
0;
#275000000
0%
0'
#280000000
1%
1'
1E
#285000000
0%
0'
#290000000
1%
1'
0E
#295000000
0%
0'
#300000000
1%
1'
1J
#305000000
0%
0'
#310000000
1%
1'
0J
#315000000
0%
0'
#320000000
1%
1'
1O
#325000000
0%
0'
#330000000
1%
1'
0O
#335000000
0%
0'
#340000000
1%
1'
b0 R
b00000000000000000000000000010100 S
1T
#345000000
0%
0'
#350000000
1%
1'
0T
#355000000
0%
0'
#360000000
1%
1'
b1 R
b00000000000000000000000000011110 S
1T
#365000000
0%
0'
#370000000
1%
1'
0T
#375000000
0%
0'
#380000000
1%
1'
b10 R
b00000000000000000000000000000000 S
1T
#385000000
0%
0'
#390000000
1%
1'
0T
#395000000
0%
0'
#400000000
1%
1'
b11 R
b00000000000000000000000000001010 S
1T
#405000000
0%
0'
#410000000
1%
1'
0T
#415000000
0%
0'
#420000000
1%
1'
b100 R
b00000000000000000000000000001011 S
1T
#425000000
0%
0'
#430000000
1%
1'
0T
#435000000
0%
0'
#440000000
1%
1'
b101 R
b00000000000000000000000000000100 S
1T
#445000000
0%
0'
#450000000
1%
1'
0T
#455000000
0%
0'
#460000000
b1 $
1%
1'
b1 *
#465000000
0%
0'
#470000000
b0 $
1%
1'
b0 *
1@
#475000000
0%
0'
#480000000
1%
1'
0@
#485000000
0%
0'
#490000000
1%
1'
1;
#495000000
0%
0'
#500000000
1%
1'
0;
#505000000
0%
0'
#510000000
1%
1'
1E
#515000000
0%
0'
#520000000
1%
1'
0E
#525000000
0%
0'
#530000000
1%
1'
1J
#535000000
0%
0'
#540000000
1%
1'
0J
#545000000
0%
0'
#550000000
1%
1'
1O
#555000000
0%
0'
#560000000
1%
1'
0O
#565000000
0%
0'
#570000000
1%
1'
b0 R
b00000000000000000000000000010100 S
1T
#575000000
0%
0'
#580000000
1%
1'
0T
#585000000
0%
0'
#590000000
1%
1'
b1 R
b00000000000000000000000000011110 S
1T
#595000000
0%
0'
#600000000
1%
1'
0T
#605000000
0%
0'
#610000000
1%
1'
b10 R
b00000000000000000000000000000000 S
1T
#615000000
0%
0'
#620000000
1%
1'
0T
#625000000
0%
0'
#630000000
1%
1'
b11 R
b00000000000000000000000000001010 S
1T
#635000000
0%
0'
#640000000
1%
1'
0T
#645000000
0%
0'
#650000000
1%
1'
b100 R
b00000000000000000000000000001011 S
1T
#655000000
0%
0'
#660000000
1%
1'
0T
#665000000
0%
0'
#670000000
1%
1'
b101 R
b00000000000000000000000000000100 S
1T
#675000000
0%
0'
#680000000
1%
1'
0T
#685000000
0%
0'
#690000000
b1 $
1%
1'
b1 *
#695000000
0%
0'
#700000000
b0 $
1%
1'
b0 *
1@
#705000000
0%
0'
#710000000
1%
1'
0@
#715000000
0%
0'
#720000000
1%
1'
1;
#725000000
0%
0'
#730000000
1%
1'
0;
#735000000
0%
0'
#740000000
1%
1'
1E
#745000000
0%
0'
#750000000
1%
1'
0E
#755000000
0%
0'
#760000000
1%
1'
1J
#765000000
0%
0'
#770000000
1%
1'
0J
#775000000
0%
0'
#780000000
1%
1'
1O
#785000000
0%
0'
#790000000
1%
1'
0O
#795000000
0%
0'
#800000000
1%
1'
b0 R
b00000000000000000000000000010100 S
1T
#805000000
0%
0'
#810000000
1%
1'
0T
#815000000
0%
0'
#820000000
1%
1'
b1 R
b00000000000000000000000000011110 S
1T
#825000000
0%
0'
#830000000
1%
1'
0T
#835000000
0%
0'
#840000000
1%
1'
b10 R
b00000000000000000000000000000000 S
1T
#845000000
0%
0'
#850000000
1%
1'
0T
#855000000
0%
0'
#860000000
1%
1'
b11 R
b00000000000000000000000000001010 S
1T
#865000000
0%
0'
#870000000
1%
1'
0T
#875000000
0%
0'
#880000000
1%
1'
b100 R
b00000000000000000000000000001011 S
1T
#885000000
0%
0'
#890000000
1%
1'
0T
#895000000
0%
0'
#900000000
1%
1'
b101 R
b00000000000000000000000000000100 S
1T
#905000000
0%
0'
#910000000
1%
1'
0T
#915000000
0%
0'
#920000000
b1 $
1%
1'
b1 *
#925000000
0%
0'
#930000000
b0 $
1%
1'
b0 *
1@
#935000000
0%
0'
#940000000
1%
1'
0@
#945000000
0%
0'
#950000000
1%
1'
1;
#955000000
0%
0'
#960000000
1%
1'
0;
#965000000
0%
0'
#970000000
1%
1'
1E
#975000000
0%
0'
#980000000
1%
1'
0E
#985000000
0%
0'
#990000000
1%
1'
1J
#995000000
0%
0'
#1000000000
1%
1'
0J
#1005000000
0%
0'
#1010000000
1%
1'
1O
#1015000000
0%
0'
#1020000000
1%
1'
0O
#1025000000
0%
0'
#1030000000
1%
1'
b0 R
b00000000000000000000000000010100 S
1T
#1035000000
0%
0'
#1040000000
1%
1'
0T
#1045000000
0%
0'
#1050000000
1%
1'
b1 R
b00000000000000000000000000011110 S
1T
#1055000000
0%
0'
#1060000000
1%
1'
0T
#1065000000
0%
0'
#1070000000
1%
1'
b10 R
b00000000000000000000000000000000 S
1T
#1075000000
0%
0'
#1080000000
1%
1'
0T
#1085000000
0%
0'
#1090000000
1%
1'
b11 R
b00000000000000000000000000001010 S
1T
#1095000000
0%
0'
#1100000000
1%
1'
0T
#1105000000
0%
0'
#1110000000
1%
1'
b100 R
b00000000000000000000000000001011 S
1T
#1115000000
0%
0'
#1120000000
1%
1'
0T
#1125000000
0%
0'
#1130000000
1%
1'
b101 R
b00000000000000000000000000000100 S
1T
#1135000000
0%
0'
#1140000000
1%
1'
0T
#1145000000
0%
0'
#1150000000
b1 $
1%
1'
b1 *
#1155000000
0%
0'
#1160000000
b0 $
1%
1'
b0 *
1@
#1165000000
0%
0'
#1170000000
1%
1'
0@
#1175000000
0%
0'
#1180000000
1%
1'
1;
#1185000000
0%
0'
#1190000000
1%
1'
0;
#1195000000
0%
0'
#1200000000
1%
1'
1E
#1205000000
0%
0'
#1210000000
1%
1'
0E
#1215000000
0%
0'
#1220000000
1%
1'
1J
#1225000000
0%
0'
#1230000000
1%
1'
0J
#1235000000
0%
0'
#1240000000
1%
1'
1O
#1245000000
0%
0'
#1250000000
1%
1'
0O
#1255000000
0%
0'
#1260000000
1%
1'
b0 R
b00000000000000000000000000010100 S
1T
#1265000000
0%
0'
#1270000000
1%
1'
0T
#1275000000
0%
0'
#1280000000
1%
1'
b1 R
b00000000000000000000000000011110 S
1T
#1285000000
0%
0'
#1290000000
1%
1'
0T
#1295000000
0%
0'
#1300000000
1%
1'
b10 R
b00000000000000000000000000000000 S
1T
#1305000000
0%
0'
#1310000000
1%
1'
0T
#1315000000
0%
0'
#1320000000
1%
1'
b11 R
b00000000000000000000000000001010 S
1T
#1325000000
0%
0'
#1330000000
1%
1'
0T
#1335000000
0%
0'
#1340000000
1%
1'
b100 R
b00000000000000000000000000001011 S
1T
#1345000000
0%
0'
#1350000000
1%
1'
0T
#1355000000
0%
0'
#1360000000
1%
1'
b101 R
b00000000000000000000000000000100 S
1T
#1365000000
0%
0'
#1370000000
1%
1'
0T
#1375000000
0%
0'
#1380000000
b1 $
1%
1'
b1 *
#1385000000
0%
0'
#1390000000
b0 $
1%
1'
b0 *
1@
#1395000000
0%
0'
#1400000000
1%
1'
0@
#1405000000
0%
0'
#1410000000
1%
1'
1;
#1415000000
0%
0'
#1420000000
1%
1'
0;
#1425000000
0%
0'
#1430000000
1%
1'
1E
#1435000000
0%
0'
#1440000000
1%
1'
0E
#1445000000
0%
0'
#1450000000
1%
1'
1J
#1455000000
0%
0'
#1460000000
1%
1'
0J
#1465000000
0%
0'
#1470000000
1%
1'
1O
#1475000000
0%
0'
#1480000000
1%
1'
0O
#1485000000
0%
0'
#1490000000
1%
1'
b0 R
b00000000000000000000000000010100 S
1T
#1495000000
0%
0'
#1500000000
1%
1'
0T
#1505000000
0%
0'
#1510000000
1%
1'
b1 R
b00000000000000000000000000011110 S
1T
#1515000000
0%
0'
#1520000000
1%
1'
0T
#1525000000
0%
0'
#1530000000
1%
1'
b10 R
b00000000000000000000000000000000 S
1T
#1535000000
0%
0'
#1540000000
1%
1'
0T
#1545000000
0%
0'
#1550000000
1%
1'
b11 R
b00000000000000000000000000001010 S
1T
#1555000000
0%
0'
#1560000000
1%
1'
0T
#1565000000
0%
0'
#1570000000
1%
1'
b100 R
b00000000000000000000000000001011 S
1T
#1575000000
0%
0'
#1580000000
1%
1'
0T
#1585000000
0%
0'
#1590000000
1%
1'
b101 R
b00000000000000000000000000000100 S
1T
#1595000000
0%
0'
#1600000000
1%
1'
0T
#1605000000
0%
0'
#1610000000
b1 $
1%
1'
b1 *
#1615000000
0%
0'
#1620000000
b0 $
1%
1'
b0 *
1@
#1625000000
0%
0'
#1630000000
1%
1'
0@
#1635000000
0%
0'
#1640000000
1%
1'
1;
#1645000000
0%
0'
#1650000000
1%
1'
0;
#1655000000
0%
0'
#1660000000
1%
1'
1E
#1665000000
0%
0'
#1670000000
1%
1'
0E
#1675000000
0%
0'
#1680000000
1%
1'
1J
#1685000000
0%
0'
#1690000000
1%
1'
0J
#1695000000
0%
0'
#1700000000
1%
1'
1O
#1705000000
0%
0'
#1710000000
1%
1'
0O
#1715000000
0%
0'
#1720000000
1%
1'
b0 R
b00000000000000000000000000010100 S
1T
#1725000000
0%
0'
#1730000000
1%
1'
0T
#1735000000
0%
0'
#1740000000
1%
1'
b1 R
b00000000000000000000000000011110 S
1T
#1745000000
0%
0'
#1750000000
1%
1'
0T
#1755000000
0%
0'
#1760000000
1%
1'
b10 R
b00000000000000000000000000000000 S
1T
#1765000000
0%
0'
#1770000000
1%
1'
0T
#1775000000
0%
0'
#1780000000
1%
1'
b11 R
b00000000000000000000000000001010 S
1T
#1785000000
0%
0'
#1790000000
1%
1'
0T
#1795000000
0%
0'
#1800000000
1%
1'
b100 R
b00000000000000000000000000001011 S
1T
#1805000000
0%
0'
#1810000000
1%
1'
0T
#1815000000
0%
0'
#1820000000
1%
1'
b101 R
b00000000000000000000000000000100 S
1T
#1825000000
0%
0'
#1830000000
1%
1'
0T
#1835000000
0%
0'
#1840000000
b1 $
1%
1'
b1 *
#1845000000
0%
0'
#1850000000
b0 $
1%
1'
b0 *
1@
#1855000000
0%
0'
#1860000000
1%
1'
0@
#1865000000
0%
0'
#1870000000
1%
1'
1;
#1875000000
0%
0'
#1880000000
1%
1'
0;
#1885000000
0%
0'
#1890000000
1%
1'
1E
#1895000000
0%
0'
#1900000000
1%
1'
0E
#1905000000
0%
0'
#1910000000
1%
1'
1J
#1915000000
0%
0'
#1920000000
1%
1'
0J
#1925000000
0%
0'
#1930000000
1%
1'
1O
#1935000000
0%
0'
#1940000000
1%
1'
0O
#1945000000
0%
0'
#1950000000
1%
1'
b0 R
b00000000000000000000000000010100 S
1T
#1955000000
0%
0'
#1960000000
1%
1'
0T
#1965000000
0%
0'
#1970000000
1%
1'
b1 R
b00000000000000000000000000011110 S
1T
#1975000000
0%
0'
#1980000000
1%
1'
0T
#1985000000
0%
0'
#1990000000
1%
1'
b10 R
b00000000000000000000000000000000 S
1T
#1995000000
0%
0'
#2000000000
1%
1'
0T
#2005000000
0%
0'
#2010000000
1%
1'
b11 R
b00000000000000000000000000001010 S
1T
#2015000000
0%
0'
#2020000000
1%
1'
0T
#2025000000
0%
0'
#2030000000
1%
1'
b100 R
b00000000000000000000000000001011 S
1T
#2035000000
0%
0'
#2040000000
1%
1'
0T
#2045000000
0%
0'
#2050000000
1%
1'
b101 R
b00000000000000000000000000000100 S
1T
#2055000000
0%
0'
#2060000000
1%
1'
0T
#2065000000
0%
0'
#2070000000
b1 $
1%
1'
b1 *
#2075000000
0%
0'
#2080000000
b0 $
1%
1'
b0 *
1@
#2085000000
0%
0'
#2090000000
1%
1'
0@
#2095000000
0%
0'
#2100000000
1%
1'
1;
#2105000000
0%
0'
#2110000000
1%
1'
0;
#2115000000
0%
0'
#2120000000
1%
1'
1E
#2125000000
0%
0'
#2130000000
1%
1'
0E
#2135000000
0%
0'
#2140000000
1%
1'
1J
#2145000000
0%
0'
#2150000000
1%
1'
0J
#2155000000
0%
0'
#2160000000
1%
1'
1O
#2165000000
0%
0'
#2170000000
1%
1'
0O
#2175000000
0%
0'
#2180000000
1%
1'
b0 R
b00000000000000000000000000010100 S
1T
#2185000000
0%
0'
#2190000000
1%
1'
0T
#2195000000
0%
0'
#2200000000
1%
1'
b1 R
b00000000000000000000000000011110 S
1T
#2205000000
0%
0'
#2210000000
1%
1'
0T
#2215000000
0%
0'
#2220000000
1%
1'
b10 R
b00000000000000000000000000000000 S
1T
#2225000000
0%
0'
#2230000000
1%
1'
0T
#2235000000
0%
0'
#2240000000
1%
1'
b11 R
b00000000000000000000000000001010 S
1T
#2245000000
0%
0'
#2250000000
1%
1'
0T
#2255000000
0%
0'
#2260000000
1%
1'
b100 R
b00000000000000000000000000001011 S
1T
#2265000000
0%
0'
#2270000000
1%
1'
0T
#2275000000
0%
0'
#2280000000
1%
1'
b101 R
b00000000000000000000000000000100 S
1T
#2285000000
0%
0'
#2290000000
1%
1'
0T
#2295000000
0%
0'
#2300000000
b1 $
1%
1'
b1 *
#2305000000
0%
0'
#2310000000
b0 $
1%
1'
b0 *
1@
#2315000000
0%
0'
#2320000000
1%
1'
0@
#2325000000
0%
0'
#2330000000
1%
1'
1;
#2335000000
0%
0'
#2340000000
1%
1'
0;
#2345000000
0%
0'
#2350000000
1%
1'
1E
#2355000000
0%
0'
#2360000000
1%
1'
0E
#2365000000
0%
0'
#2370000000
1%
1'
1J
#2375000000
0%
0'
#2380000000
1%
1'
0J
#2385000000
0%
0'
#2390000000
1%
1'
1O
#2395000000
0%
0'
#2400000000
1%
1'
0O
#2405000000
0%
0'
#2410000000
1%
1'
b0 R
b00000000000000000000000000010100 S
1T
#2415000000
0%
0'
#2420000000
1%
1'
0T
#2425000000
0%
0'
#2430000000
1%
1'
b1 R
b00000000000000000000000000011110 S
1T
#2435000000
0%
0'
#2440000000
1%
1'
0T
#2445000000
0%
0'
#2450000000
1%
1'
b10 R
b00000000000000000000000000000000 S
1T
#2455000000
0%
0'
#2460000000
1%
1'
0T
#2465000000
0%
0'
#2470000000
1%
1'
b11 R
b00000000000000000000000000001010 S
1T
#2475000000
0%
0'
#2480000000
1%
1'
0T
#2485000000
0%
0'
#2490000000
1%
1'
b100 R
b00000000000000000000000000001011 S
1T
#2495000000
0%
0'
#2500000000
1%
1'
0T
#2505000000
0%
0'
#2510000000
1%
1'
b101 R
b00000000000000000000000000000100 S
1T
#2515000000
0%
0'
#2520000000
1%
1'
0T
#2525000000
0%
0'
#2530000000
b1 $
1%
1'
b1 *
#2535000000
0%
0'
#2540000000
b0 $
1%
1'
b0 *
1@
#2545000000
0%
0'
#2550000000
1%
1'
0@
#2555000000
0%
0'
#2560000000
1%
1'
1;
#2565000000
0%
0'
#2570000000
1%
1'
0;
#2575000000
0%
0'
#2580000000
1%
1'
1E
#2585000000
0%
0'
#2590000000
1%
1'
0E
#2595000000
0%
0'
#2600000000
1%
1'
1J
#2605000000
0%
0'
#2610000000
1%
1'
0J
#2615000000
0%
0'
#2620000000
1%
1'
1O
#2625000000
0%
0'
#2630000000
1%
1'
0O
#2635000000
0%
0'
#2640000000
1%
1'
b0 R
b00000000000000000000000000010100 S
1T
#2645000000
0%
0'
#2650000000
1%
1'
0T
#2655000000
0%
0'
#2660000000
1%
1'
b1 R
b00000000000000000000000000011110 S
1T
#2665000000
0%
0'
#2670000000
1%
1'
0T
#2675000000
0%
0'
#2680000000
1%
1'
b10 R
b00000000000000000000000000000000 S
1T
#2685000000
0%
0'
#2690000000
1%
1'
0T
#2695000000
0%
0'
#2700000000
1%
1'
b11 R
b00000000000000000000000000001010 S
1T
#2705000000
0%
0'
#2710000000
1%
1'
0T
#2715000000
0%
0'
#2720000000
1%
1'
b100 R
b00000000000000000000000000001011 S
1T
#2725000000
0%
0'
#2730000000
1%
1'
0T
#2735000000
0%
0'
#2740000000
1%
1'
b101 R
b00000000000000000000000000000100 S
1T
#2745000000
0%
0'
#2750000000
1%
1'
0T
#2755000000
0%
0'
#2760000000
b1 $
1%
1'
b1 *
#2765000000
0%
0'
#2770000000
b0 $
1%
1'
b0 *
1@
#2775000000
0%
0'
#2780000000
1%
1'
0@
#2785000000
0%
0'
#2790000000
1%
1'
1;
#2795000000
0%
0'
#2800000000
1%
1'
0;
#2805000000
0%
0'
#2810000000
1%
1'
1E
#2815000000
0%
0'
#2820000000
1%
1'
0E
#2825000000
0%
0'
#2830000000
1%
1'
1J
#2835000000
0%
0'
#2840000000
1%
1'
0J
#2845000000
0%
0'
#2850000000
1%
1'
1O
#2855000000
0%
0'
#2860000000
1%
1'
0O
#2865000000
0%
0'
#2870000000
1%
1'
b0 R
b00000000000000000000000000010100 S
1T
#2875000000
0%
0'
#2880000000
1%
1'
0T
#2885000000
0%
0'
#2890000000
1%
1'
b1 R
b00000000000000000000000000011110 S
1T
#2895000000
0%
0'
#2900000000
1%
1'
0T
#2905000000
0%
0'
#2910000000
1%
1'
b10 R
b00000000000000000000000000000000 S
1T
#2915000000
0%
0'
#2920000000
1%
1'
0T
#2925000000
0%
0'
#2930000000
1%
1'
b11 R
b00000000000000000000000000001010 S
1T
#2935000000
0%
0'
#2940000000
1%
1'
0T
#2945000000
0%
0'
#2950000000
1%
1'
b100 R
b00000000000000000000000000001011 S
1T
#2955000000
0%
0'
#2960000000
1%
1'
0T
#2965000000
0%
0'
#2970000000
1%
1'
b101 R
b00000000000000000000000000000100 S
1T
#2975000000
0%
0'
#2980000000
1%
1'
0T
#2985000000
0%
0'
#2990000000
b1 $
1%
1'
b1 *
#2995000000
0%
0'
#3000000000
b0 $
1%
1'
b0 *
1@
#3005000000
0%
0'
#3010000000
1%
1'
0@
#3015000000
0%
0'
#3020000000
1%
1'
1;
#3025000000
0%
0'
#3030000000
1%
1'
0;
#3035000000
0%
0'
#3040000000
1%
1'
1E
#3045000000
0%
0'
#3050000000
1%
1'
0E
#3055000000
0%
0'
#3060000000
1%
1'
1J
#3065000000
0%
0'
#3070000000
1%
1'
0J
#3075000000
0%
0'
#3080000000
1%
1'
1O
#3085000000
0%
0'
#3090000000
1%
1'
0O
#3095000000
0%
0'
#3100000000
1%
1'
b0 R
b00000000000000000000000000010100 S
1T
#3105000000
0%
0'
#3110000000
1%
1'
0T
#3115000000
0%
0'
#3120000000
1%
1'
b1 R
b00000000000000000000000000011110 S
1T
#3125000000
0%
0'
#3130000000
1%
1'
0T
#3135000000
0%
0'
#3140000000
1%
1'
b10 R
b00000000000000000000000000000000 S
1T
#3145000000
0%
0'
#3150000000
1%
1'
0T
#3155000000
0%
0'
#3160000000
1%
1'
b11 R
b00000000000000000000000000001010 S
1T
#3165000000
0%
0'
#3170000000
1%
1'
0T
#3175000000
0%
0'
#3180000000
1%
1'
b100 R
b00000000000000000000000000001011 S
1T
#3185000000
0%
0'
#3190000000
1%
1'
0T
#3195000000
0%
0'
#3200000000
1%
1'
b101 R
b00000000000000000000000000000100 S
1T
#3205000000
0%
0'
#3210000000
1%
1'
0T
#3215000000
0%
0'
#3220000000
b1 $
1%
1'
b1 *
#3225000000
0%
0'
#3230000000
b0 $
1%
1'
b0 *
1@
#3235000000
0%
0'
#3240000000
1%
1'
0@
#3245000000
0%
0'
#3250000000
1%
1'
1;
#3255000000
0%
0'
#3260000000
1%
1'
0;
#3265000000
0%
0'
#3270000000
1%
1'
1E
#3275000000
0%
0'
#3280000000
1%
1'
0E
#3285000000
0%
0'
#3290000000
1%
1'
1J
#3295000000
0%
0'
#3300000000
1%
1'
0J
#3305000000
0%
0'
#3310000000
1%
1'
1O
#3315000000
0%
0'
#3320000000
1%
1'
0O
#3325000000
0%
0'
#3330000000
1%
1'
b0 R
b00000000000000000000000000010100 S
1T
#3335000000
0%
0'
#3340000000
1%
1'
0T
#3345000000
0%
0'
#3350000000
1%
1'
b1 R
b00000000000000000000000000011110 S
1T
#3355000000
0%
0'
#3360000000
1%
1'
0T
#3365000000
0%
0'
#3370000000
1%
1'
b10 R
b00000000000000000000000000000000 S
1T
#3375000000
0%
0'
#3380000000
1%
1'
0T
#3385000000
0%
0'
#3390000000
1%
1'
b11 R
b00000000000000000000000000001010 S
1T
#3395000000
0%
0'
#3400000000
1%
1'
0T
#3405000000
0%
0'
#3410000000
1%
1'
b100 R
b00000000000000000000000000001011 S
1T
#3415000000
0%
0'
#3420000000
1%
1'
0T
#3425000000
0%
0'
#3430000000
1%
1'
b101 R
b00000000000000000000000000000100 S
1T
#3435000000
0%
0'
#3440000000
1%
1'
0T
#3445000000
0%
0'
#3450000000
b1 $
1%
1'
b1 *
#3455000000
0%
0'
#3460000000
b0 $
1%
1'
b0 *
1@
#3465000000
0%
0'
#3470000000
1%
1'
0@
#3475000000
0%
0'
#3480000000
1%
1'
1;
#3485000000
0%
0'
#3490000000
1%
1'
0;
#3495000000
0%
0'
#3500000000
1%
1'
1E
#3505000000
0%
0'
#3510000000
1%
1'
0E
#3515000000
0%
0'
#3520000000
1%
1'
1J
#3525000000
0%
0'
#3530000000
1%
1'
0J
#3535000000
0%
0'
#3540000000
1%
1'
1O
#3545000000
0%
0'
#3550000000
1%
1'
0O
#3555000000
0%
0'
#3560000000
1%
1'
b0 R
b00000000000000000000000000010100 S
1T
#3565000000
0%
0'
#3570000000
1%
1'
0T
#3575000000
0%
0'
#3580000000
1%
1'
b1 R
b00000000000000000000000000011110 S
1T
#3585000000
0%
0'
#3590000000
1%
1'
0T
#3595000000
0%
0'
#3600000000
1%
1'
b10 R
b00000000000000000000000000000000 S
1T
#3605000000
0%
0'
#3610000000
1%
1'
0T
#3615000000
0%
0'
#3620000000
1%
1'
b11 R
b00000000000000000000000000001010 S
1T
#3625000000
0%
0'
#3630000000
1%
1'
0T
#3635000000
0%
0'
#3640000000
1%
1'
b100 R
b00000000000000000000000000001011 S
1T
#3645000000
0%
0'
#3650000000
1%
1'
0T
#3655000000
0%
0'
#3660000000
1%
1'
b101 R
b00000000000000000000000000000100 S
1T
#3665000000
0%
0'
#3670000000
1%
1'
0T
#3675000000
0%
0'
#3680000000
b1 $
1%
1'
b1 *
#3685000000
0%
0'
#3690000000
b0 $
1%
1'
b0 *
1@
#3695000000
0%
0'
#3700000000
1%
1'
0@
#3705000000
0%
0'
#3710000000
1%
1'
1;
#3715000000
0%
0'
#3720000000
1%
1'
0;
#3725000000
0%
0'
#3730000000
1%
1'
1E
#3735000000
0%
0'
#3740000000
1%
1'
0E
#3745000000
0%
0'
#3750000000
1%
1'
1J
#3755000000
0%
0'
#3760000000
1%
1'
0J
#3765000000
0%
0'
#3770000000
1%
1'
1O
#3775000000
0%
0'
#3780000000
1%
1'
0O
#3785000000
0%
0'
#3790000000
1%
1'
b0 R
b00000000000000000000000000010100 S
1T
#3795000000
0%
0'
