ribbit-main/src/host/RibbitEclat/target/tb.vcd
$date
  Mon May 20 04:55:02 2024
$end
$version
  GHDL v0
$end
$timescale
  1 fs
$end
$scope module standard $end
$upscope $end
$scope module std_logic_1164 $end
$upscope $end
$scope module numeric_std $end
$upscope $end
$scope module runtime $end
$upscope $end
$scope module textio $end
$upscope $end
$scope module tb_main $end
$var reg 1 ! tb_run $end
$var reg 1 " tb_argument[0:0] $end
$var reg 1 # tb_result[0:0] $end
$var reg 1 $ tb_rdy[0:0] $end
$var reg 1 % tb_clk $end
$var reg 1 & rst $end
$scope module u1 $end
$var reg 1 ' clk $end
$var reg 1 ( reset $end
$var reg 1 ) run $end
$var reg 1 * rdy[0:0] $end
$var reg 1 + argument[0:0] $end
$var reg 1 , result[0:0] $end
$comment \state\ is not handled $end
$comment arr3398 is not handled $end
$var reg 32 - \$arr3398_value\[0:31] $end
$var integer 32 . \$arr3398_ptr\ $end
$var integer 32 / \$arr3398_ptr_write\ $end
$var reg 32 0 \$arr3398_write\[0:31] $end
$var reg 1 1 \$arr3398_write_request\ $end
$comment arr3399 is not handled $end
$var reg 108 2 \$arr3399_value\[0:107] $end
$var integer 32 3 \$arr3399_ptr\ $end
$var integer 32 4 \$arr3399_ptr_write\ $end
$var reg 108 5 \$arr3399_write\[0:107] $end
$var reg 1 6 \$arr3399_write_request\ $end
$comment arr3400 is not handled $end
$var reg 32 7 \$arr3400_value\[0:31] $end
$var integer 32 8 \$arr3400_ptr\ $end
$var integer 32 9 \$arr3400_ptr_write\ $end
$var reg 32 : \$arr3400_write\[0:31] $end
$var reg 1 ; \$arr3400_write_request\ $end
$comment arr3401 is not handled $end
$var reg 32 < \$arr3401_value\[0:31] $end
$var integer 32 = \$arr3401_ptr\ $end
$var integer 32 > \$arr3401_ptr_write\ $end
$var reg 32 ? \$arr3401_write\[0:31] $end
$var reg 1 @ \$arr3401_write_request\ $end
$comment arr3402 is not handled $end
$var reg 32 A \$arr3402_value\[0:31] $end
$var integer 32 B \$arr3402_ptr\ $end
$var integer 32 C \$arr3402_ptr_write\ $end
$var reg 32 D \$arr3402_write\[0:31] $end
$var reg 1 E \$arr3402_write_request\ $end
$comment arr3403 is not handled $end
$var reg 32 F \$arr3403_value\[0:31] $end
$var integer 32 G \$arr3403_ptr\ $end
$var integer 32 H \$arr3403_ptr_write\ $end
$var reg 32 I \$arr3403_write\[0:31] $end
$var reg 1 J \$arr3403_write_request\ $end
$comment arr3404 is not handled $end
$var reg 32 K \$arr3404_value\[0:31] $end
$var integer 32 L \$arr3404_ptr\ $end
$var integer 32 M \$arr3404_ptr_write\ $end
$var reg 32 N \$arr3404_write\[0:31] $end
$var reg 1 O \$arr3404_write_request\ $end
$comment arr3405 is not handled $end
$var reg 32 P \$arr3405_value\[0:31] $end
$var integer 32 Q \$arr3405_ptr\ $end
$var integer 32 R \$arr3405_ptr_write\ $end
$var reg 32 S \$arr3405_write\[0:31] $end
$var reg 1 T \$arr3405_write_request\ $end
$upscope $end
$upscope $end
$enddefinitions $end
#0
0!
bU "
bU #
bU $
1%
1&
1'
1(
0)
bU *
bU +
bU ,
bUUUUUUUUUUUUUUUUUUUUUUUUUUUUUUUU -
b0 .
b0 /
bUUUUUUUUUUUUUUUUUUUUUUUUUUUUUUUU 0
01
bUUUUUUUUUUUUUUUUUUUUUUUUUUUUUUUUUUUUUUUUUUUUUUUUUUUUUUUUUUUUUUUUUUUUUUUUUUUUUUUUUUUUUUUUUUUUUUUUUUUUUUUUUUUU 2
b0 3
b0 4
bUUUUUUUUUUUUUUUUUUUUUUUUUUUUUUUUUUUUUUUUUUUUUUUUUUUUUUUUUUUUUUUUUUUUUUUUUUUUUUUUUUUUUUUUUUUUUUUUUUUUUUUUUUUU 5
06
bUUUUUUUUUUUUUUUUUUUUUUUUUUUUUUUU 7
b0 8
b0 9
bUUUUUUUUUUUUUUUUUUUUUUUUUUUUUUUU :
0;
bUUUUUUUUUUUUUUUUUUUUUUUUUUUUUUUU <
b0 =
b0 >
bUUUUUUUUUUUUUUUUUUUUUUUUUUUUUUUU ?
0@
bUUUUUUUUUUUUUUUUUUUUUUUUUUUUUUUU A
b0 B
b0 C
bUUUUUUUUUUUUUUUUUUUUUUUUUUUUUUUU D
0E
bUUUUUUUUUUUUUUUUUUUUUUUUUUUUUUUU F
b0 G
b0 H
bUUUUUUUUUUUUUUUUUUUUUUUUUUUUUUUU I
0J
bUUUUUUUUUUUUUUUUUUUUUUUUUUUUUUUU K
b0 L
b0 M
bUUUUUUUUUUUUUUUUUUUUUUUUUUUUUUUU N
0O
bUUUUUUUUUUUUUUUUUUUUUUUUUUUUUUUU P
b0 Q
b0 R
bUUUUUUUUUUUUUUUUUUUUUUUUUUUUUUUU S
0T
#2000000
0&
0(
#5000000
0%
0'
#10000000
1!
b0 #
b0 $
1%
1'
1)
b0 *
b0 ,
b00000000000000000000000000000000 -
b000000000000000000000000000000000000000000000000000000000000000000000000000000000000000000000000000000000000 2
b00000000000000000000000000000000 7
b00000000000000000000000000000000 <
b00000000000000000000000000000000 ?
1@
b00000000000000000000000000000000 A
b00000000000000000000000000000000 F
b00000000000000000000000000000000 K
b00000000000000000000000000000000 P
#15000000
0%
0'
#20000000
1%
1'
0@
#25000000
0%
0'
#30000000
1%
1'
b00000000000000000010001100101000 :
1;
#35000000
0%
0'
#40000000
1%
1'
0;
#45000000
0%
0'
#50000000
1%
1'
b00000000000000000010001100101000 7
b00000000000000000000000000000000 D
1E
#55000000
0%
0'
#60000000
1%
1'
0E
#65000000
0%
0'
#70000000
1%
1'
b00000000000000000000000000000000 I
1J
#75000000
0%
0'
#80000000
1%
1'
0J
#85000000
0%
0'
#90000000
1%
1'
b00000000000000000000000000000000 N
1O
#95000000
0%
0'
#100000000
1%
1'
0O
#105000000
0%
0'
#110000000
1%
1'
b00000000000000000000000000010100 S
1T
#115000000
0%
0'
#120000000
1%
1'
0T
#125000000
0%
0'
#130000000
1%
1'
b00000000000000000000000000010100 P
b1 R
b00000000000000000000000000011110 S
1T
#135000000
0%
0'
#140000000
1%
1'
0T
#145000000
0%
0'
#150000000
1%
1'
b10 R
b00000000000000000000000000000000 S
1T
#155000000
0%
0'
#160000000
1%
1'
0T
#165000000
0%
0'
#170000000
1%
1'
b11 R
b00000000000000000000000000001010 S
1T
#175000000
0%
0'
#180000000
1%
1'
0T
#185000000
0%
0'
#190000000
1%
1'
b100 R
b00000000000000000000000000001011 S
1T
#195000000
0%
0'
#200000000
1%
1'
0T
#205000000
0%
0'
#210000000
1%
1'
b101 R
b00000000000000000000000000000100 S
1T
#215000000
0%
0'
#220000000
1%
1'
0T
#225000000
0%
0'
#230000000
1%
1'
b000100000000000000000000000000000000000100000000000000000000000000000000000100000000000000000000000000000101 5
16
#235000000
0%
0'
#240000000
1%
1'
06
#245000000
0%
0'
#250000000
1%
1'
b000100000000000000000000000000000000000100000000000000000000000000000000000100000000000000000000000000000101 2
b1 4
16
#255000000
0%
0'
#260000000
1%
1'
06
#265000000
0%
0'
#270000000
1%
1'
b10 4
16
#275000000
0%
0'
#280000000
1%
1'
06
#285000000
0%
0'
#290000000
1%
1'
b11 4
b001000000000000000000000000000000001001000000000000000000000000000000010000100000000000000000000000000000101 5
16
#295000000
0%
0'
#300000000
1%
1'
06
#305000000
0%
0'
#310000000
1%
1'
b00000000000000000000000000000011 D
1E
#315000000
0%
0'
#320000000
1%
1'
0E
#325000000
0%
0'
#330000000
1%
1'
b00000000000000000000000000000011 A
#335000000
0%
0'
#340000000
1%
1'
#345000000
0%
0'
#350000000
1%
1'
b00000000000000000000000000000011 N
1O
#355000000
0%
0'
#360000000
1%
1'
0O
#365000000
0%
0'
#370000000
1%
1'
b00000000000000000000000000000011 K
#375000000
0%
0'
#380000000
1%
1'
#385000000
0%
0'
#390000000
1%
1'
b0 4
b000100000000000000000000000000000000001000000000000000000000000000000011000100000000000000000000000000000001 5
16
#395000000
0%
0'
#400000000
1%
1'
06
#405000000
0%
0'
#410000000
1%
1'
b000100000000000000000000000000000000001000000000000000000000000000000011000100000000000000000000000000000001 2
#415000000
0%
0'
#420000000
1%
1'
#425000000
0%
0'
#430000000
1%
1'
b00000000000000000000000000000011 ?
1@
#435000000
0%
0'
#440000000
1%
1'
0@
#445000000
0%
0'
#450000000
1%
1'
b00000000000000000000000000000011 <
#455000000
0%
0'
#460000000
1%
1'
#465000000
0%
0'
#470000000
1%
1'
b00000000000000000010001100101000 N
1O
#475000000
0%
0'
#480000000
1%
1'
0O
#485000000
0%
0'
#490000000
1%
1'
b00000000000000000010001100101000 K
#495000000
0%
0'
#500000000
1%
1'
#505000000
0%
0'
#510000000
1%
1'
b11 3
#515000000
0%
0'
#520000000
1%
1'
b001000000000000000000000000000000001001000000000000000000000000000000010000100000000000000000000000000000101 2
#525000000
0%
0'
#530000000
1%
1'
b1 3
#535000000
0%
0'
#540000000
1%
1'
b000100000000000000000000000000000000000100000000000000000000000000000000000100000000000000000000000000000101 2
#545000000
0%
0'
#550000000
1%
1'
b1 4
b001000000000000000000000000000000000000100000000000000000000000000000000000100000000000000000000000000000101 5
16
#555000000
0%
0'
#560000000
1%
1'
06
#565000000
0%
0'
#570000000
1%
1'
b001000000000000000000000000000000000000100000000000000000000000000000000000100000000000000000000000000000101 2
#575000000
0%
0'
#580000000
1%
1'
#585000000
0%
0'
#590000000
1%
1'
b11 3
#595000000
0%
0'
#600000000
1%
1'
b001000000000000000000000000000000001001000000000000000000000000000000010000100000000000000000000000000000101 2
#605000000
0%
0'
#610000000
1%
1'
b00000000000000000000000000000010 D
1E
#615000000
0%
0'
#620000000
1%
1'
0E
#625000000
0%
0'
#630000000
1%
1'
b00000000000000000000000000000010 A
#635000000
0%
0'
#640000000
1%
1'
#645000000
0%
0'
#650000000
1%
1'
b10 3
#655000000
0%
0'
#660000000
1%
1'
b000100000000000000000000000000000000000100000000000000000000000000000000000100000000000000000000000000000101 2
